<?xml version="1.0" standalone="no"?>
<!DOCTYPE svg PUBLIC "-//W3C//DTD SVG 1.1//EN" "http://www.w3.org/Graphics/SVG/1.1/DTD/svg11.dtd" >
<svg xmlns="http://www.w3.org/2000/svg">
<metadata></metadata>
<defs>
<font id="nerisblack" horiz-adv-x="434" >
<font-face units-per-em="1000" ascent="755" descent="-245" />
<missing-glyph horiz-adv-x="200" />
<glyph horiz-adv-x="1000" />
<glyph horiz-adv-x="1000" />
<glyph unicode="&#xd;" horiz-adv-x="485" />
<glyph unicode=" "  horiz-adv-x="200" />
<glyph unicode="&#x09;" horiz-adv-x="200" />
<glyph unicode="&#xa0;" horiz-adv-x="200" />
<glyph unicode="!" horiz-adv-x="293" d="M60 82q0 44 24 68.5t67 24.5q44 0 68 -24.5t24 -68.5t-24.5 -68.5t-67.5 -24.5t-67 24.5t-24 68.5zM62 513v185q0 13 13 13h143q13 0 13 -13v-185q0 -40 -12.5 -141.5t-14.5 -132.5q0 -13 -13 -13h-89q-13 0 -13 13q-2 31 -14.5 132.5t-12.5 141.5z" />
<glyph unicode="&#x22;" d="M57 622v93q0 13 13 13h102q13 0 13 -13v-93q0 -22 -9.5 -81t-10.5 -67q-1 -12 -13 -12h-62q-12 0 -13 12q-1 15 -10.5 70.5t-9.5 77.5zM249 622v93q0 13 13 13h102q13 0 13 -13v-93q0 -22 -9.5 -81t-10.5 -67q-1 -12 -13 -12h-62q-12 0 -13 12q-1 15 -10.5 70.5 t-9.5 77.5z" />
<glyph unicode="#" horiz-adv-x="763" d="M40 154l15 114q1 12 14 12h99l20 149h-96q-14 0 -12 14l13 113q1 12 13 12h102l17 129q1 12 14 12h120q14 0 12 -14l-17 -127h116l17 129q1 12 14 12h120q14 0 12 -14l-17 -127h95q14 0 12 -14l-13 -113q-2 -12 -13 -12h-101l-20 -149h98q14 0 12 -14l-15 -114 q-1 -12 -14 -12h-101l-17 -128q-1 -12 -14 -12h-120q-14 0 -12 14l17 126h-116l-17 -128q-1 -12 -14 -12h-120q-14 0 -12 14l17 126h-96q-14 0 -12 14zM314 280h116l20 149h-116z" />
<glyph unicode="$" horiz-adv-x="620" d="M44 59l40 111q5 12 16 8l70 -21q79 -24 146 -24q100 0 100 66q0 40 -90 74l-84 32q-104 39 -145.5 84t-41.5 126q0 79 45 129.5t127 67.5v100q0 13 13 13h133q13 0 13 -13v-97q46 -8 86 -21l66 -22q12 -4 9 -16l-41 -112q-5 -12 -16 -8l-59 18q-70 21 -119 21 q-42 0 -68 -16.5t-26 -43.5q0 -25 20.5 -40t67.5 -32l84 -31q105 -39 147 -85.5t42 -127.5q0 -172 -181 -203v-97q0 -13 -13 -13h-134q-13 0 -13 13v95q-49 6 -119 28l-66 21q-12 4 -9 16z" />
<glyph unicode="%" horiz-adv-x="787" d="M38 556q0 73 43.5 115t116.5 42q72 0 116 -42t44 -115q0 -72 -44 -114.5t-116 -42.5q-73 0 -116.5 42.5t-43.5 114.5zM99 16l455 677q6 8 16 8h109q8 0 10.5 -4.5t-2.5 -11.5l-455 -677q-6 -8 -16 -8h-109q-8 0 -10.5 4.5t2.5 11.5zM154 556q0 -22 12 -36t32 -14 q19 0 31 14.5t12 35.5q0 24 -11.5 37.5t-31.5 13.5q-44 0 -44 -51zM430 145q0 72 43 114t115 42q73 0 116.5 -42t43.5 -114q0 -73 -43.5 -114.5t-116.5 -41.5q-72 0 -115 41.5t-43 114.5zM546 145q0 -22 11.5 -36t30.5 -14q21 0 33 14t12 36q0 48 -45 48q-19 0 -30.5 -12.5 t-11.5 -35.5z" />
<glyph unicode="&#x26;" horiz-adv-x="735" d="M40 179q0 57 27.5 100t88.5 81l21 13q-54 72 -54 146q0 94 58.5 147.5t161.5 53.5q62 0 125 -21l63 -22q11 -3 8 -16l-39 -107q-3 -13 -16 -8l-58 20q-39 12 -83 12q-33 0 -52 -15.5t-19 -43.5q0 -36 48 -92l153 -174l26 17q34 24 34 46v27h-60q-13 0 -13 13v111 q0 13 13 13h194q13 0 13 -13v-151q0 -59 -20.5 -92.5t-74.5 -69.5l-16 -10l112 -128q5 -7 3 -11.5t-10 -4.5h-159q-10 0 -16 7l-52 58l-24 -16q-98 -60 -182 -60q-94 0 -147.5 50.5t-53.5 139.5zM191 179q0 -23 13.5 -36t36.5 -13q43 0 100 39l9 6l-80 89l-44 -27 q-35 -22 -35 -58z" />
<glyph unicode="'" horiz-adv-x="242" d="M57 622v93q0 13 13 13h102q13 0 13 -13v-93q0 -22 -9.5 -81t-10.5 -67q-1 -12 -13 -12h-62q-12 0 -13 12q-1 15 -10.5 70.5t-9.5 77.5z" />
<glyph unicode="(" horiz-adv-x="383" d="M77 332q0 235 107 423q4 9 15 9h119q17 0 9 -15q-52 -109 -80 -204t-28 -213t28 -213.5t80 -204.5q8 -15 -9 -15h-119q-11 0 -15 9q-107 188 -107 424z" />
<glyph unicode=")" horiz-adv-x="383" d="M56 -86q52 109 80 204.5t28 213.5t-28 213t-80 204q-8 15 9 15h119q10 0 15 -9q107 -188 107 -423q0 -236 -107 -424q-5 -9 -15 -9h-119q-17 0 -9 15z" />
<glyph unicode="*" horiz-adv-x="426" d="M38 526v73q0 13 13 13h44q23 0 48 -9q3 -1 4.5 1.5t-1.5 4.5q-24 21 -34 37l-36 66q-9 16 9 16h80q11 0 15 -9l14 -24q12 -26 16 -50q1 -4 3.5 -4t3.5 5q4 27 15 47l14 26q4 9 15 9h80q8 0 10.5 -4.5t-1.5 -11.5l-37 -66q-15 -26 -34 -37q-5 -3 0 -6q1 -1 3 0q20 9 52 9 h41q13 0 13 -13v-73q0 -13 -13 -13h-42q-27 0 -51 9q-3 1 -4.5 -1.5t1.5 -4.5q20 -13 34 -36l38 -68q7 -16 -10 -16h-78q-11 0 -15 9l-13 24q-16 28 -18 52q-1 8 -5 4q-2 -1 -2 -4q-2 -22 -18 -52l-14 -24q-4 -9 -15 -9h-78q-17 0 -10 15l37 68q16 24 34 37q3 2 1.5 4.5 t-4.5 1.5q-20 -9 -48 -9h-44q-13 0 -13 13z" />
<glyph unicode="+" horiz-adv-x="628" d="M67 203v113q0 13 13 13h162v175q0 13 13 13h119q13 0 13 -13v-175h161q13 0 13 -13v-113q0 -13 -13 -13h-161v-175q0 -13 -13 -13h-119q-13 0 -13 13v175h-162q-13 0 -13 13z" />
<glyph unicode="," horiz-adv-x="274" d="M45 78q0 46 24 70.5t68 24.5q43 0 67.5 -28.5t24.5 -78.5q0 -69 -46 -151l-44 -79h-91l63 113q8 14 10 22.5t-2.5 13.5t-17.5 9q-25 8 -40.5 30.5t-15.5 53.5z" />
<glyph unicode="-" d="M67 204v112q0 13 13 13h275q13 0 13 -13v-112q0 -13 -13 -13h-275q-13 0 -13 13z" />
<glyph unicode="." horiz-adv-x="283" d="M50 82q0 44 24 68.5t67 24.5q44 0 68 -24.5t24 -68.5t-24.5 -68.5t-67.5 -24.5t-67 24.5t-24 68.5z" />
<glyph unicode="/" horiz-adv-x="572" d="M54 -86l325 842q4 10 15 10h124q17 0 10 -15l-326 -842q-4 -10 -15 -10h-123q-17 0 -10 15z" />
<glyph unicode="0" horiz-adv-x="653" d="M45 354q0 169 75.5 267.5t205.5 98.5t205.5 -98.5t75.5 -267.5t-75.5 -267t-205.5 -98t-205.5 98t-75.5 267zM205 354q0 -106 32 -165.5t89 -59.5q58 0 89.5 59.5t31.5 165.5t-31.5 165.5t-89.5 59.5q-57 0 -89 -59.5t-32 -165.5z" />
<glyph unicode="1" horiz-adv-x="395" d="M30 599q-5 13 7 17l260 100q10 4 25 -9q8 -5 8 -16v-678q0 -13 -13 -13h-132q-13 0 -13 13v403q0 51 7 84q1 12 -10 12q-6 0 -16 -5l-65 -25q-13 -5 -17 7z" />
<glyph unicode="2" horiz-adv-x="595" d="M54 13v61q0 205 139 291l147 92q39 23 39 55t-21.5 49.5t-60.5 17.5q-59 0 -119 -20l-66 -21q-11 -4 -16 8l-37 109q-4 11 8 16l64 21q87 28 166 28q114 0 178 -55t64 -153q0 -55 -29 -96.5t-93 -81.5l-151 -93q-25 -15 -38.5 -43.5t-13.5 -59.5h300q13 0 13 -13v-112 q0 -13 -13 -13h-447q-13 0 -13 13z" />
<glyph unicode="3" horiz-adv-x="606" d="M50 56l41 107q3 13 16 8l64 -21q66 -21 117 -21t80 24t29 65q0 38 -26.5 61t-72.5 23h-59q-13 0 -13 13v112q0 13 13 13h58q35 0 55.5 17.5t20.5 45.5q0 36 -23 56t-63 20q-48 0 -103 -19l-56 -19q-11 -4 -16 8l-38 110q-3 12 8 16l59 19q73 26 146 26q115 0 180 -52.5 t65 -146.5q0 -51 -19.5 -82t-61.5 -54q-17 -9 0 -17q105 -48 105 -169q0 -99 -71 -154.5t-197 -55.5q-76 0 -163 28l-67 23q-13 3 -8 16z" />
<glyph unicode="4" horiz-adv-x="640" d="M40 176v122q0 8 6 16q41 49 77 101l142 196q13 18 58 89q5 9 15 9h179q13 0 13 -13v-395h62q13 0 13 -13v-112q0 -13 -13 -13h-62v-150q0 -13 -13 -13h-132q-13 0 -13 13v150h-319q-13 0 -13 13zM216 319q-6 -7 -4 -12.5t11 -5.5h149v88q0 57 8 120q2 11 -4 12.5 t-13 -8.5l-103 -142q-19 -29 -44 -52z" />
<glyph unicode="5" horiz-adv-x="606" d="M50 59l41 106q4 11 17 8l63 -23q69 -21 124 -21q48 0 75.5 26.5t29.5 73.5q2 39 -22 61.5t-75 22.5q-23 0 -74 -7l-109 -15q-10 -1 -17 6l-8 7q-7 6 -7 16v376q0 13 13 13h408q14 0 11 -15l-32 -113q-3 -11 -14 -11h-228v-57q0 -37 -3 -59q-1 -8 2 -9t11 0q1 1 2 1h2 l28 4q30 4 43 4q104 1 166.5 -59.5t62.5 -165.5q0 -113 -70 -176.5t-195 -63.5q-76 0 -169 30l-68 24q-13 3 -8 16z" />
<glyph unicode="6" horiz-adv-x="630" d="M45 242q1 90 32 166t120 197l71 96q5 8 16 8h156q8 0 10.5 -4.5t-2.5 -11.5l-114 -156q-28 -39 -58 -63q-9 -7 -5.5 -13t14.5 -2q39 12 87 12q86 0 149.5 -65t63.5 -172q0 -115 -71 -180t-198 -65q-128 0 -200 67t-71 186zM205 234q0 -49 29.5 -77t81.5 -28q51 0 80 28 t29 77q0 46 -29 73.5t-80 27.5q-52 0 -81.5 -27.5t-29.5 -73.5z" />
<glyph unicode="7" horiz-adv-x="604" d="M45 583v113q0 13 13 13h497q10 0 17 -10.5t2 -20.5q-41 -72 -83 -170l-199 -498q-4 -10 -15 -10h-138q-17 0 -10 15l173 435q21 52 55 101q6 11 3 15t-17 4h-285q-13 0 -13 13z" />
<glyph unicode="8" horiz-adv-x="637" d="M50 200q0 114 117 168q5 2 7 5t0 6.5t-7 5.5q-93 43 -93 145q0 88 65.5 139t178.5 51t179 -51t66 -139q0 -102 -94 -145q-7 -4 -7 -9t7 -8q118 -54 118 -168q0 -98 -72 -154.5t-197 -56.5t-196.5 56.5t-71.5 154.5zM210 215q0 -42 28.5 -64t79.5 -22q52 0 80.5 22 t28.5 64q0 41 -29 64t-80 23q-50 0 -79 -23.5t-29 -63.5zM234 508q0 -30 22.5 -48.5t61.5 -18.5q40 0 62.5 18.5t22.5 48.5q0 34 -22 52.5t-63 18.5q-40 0 -62 -18.5t-22 -52.5z" />
<glyph unicode="9" horiz-adv-x="630" d="M40 475q0 115 71 180t198 65q128 0 200 -67t71 -186q-1 -90 -32 -166t-120 -197l-71 -96q-5 -8 -16 -8h-156q-8 0 -10.5 4.5t2.5 11.5l114 156q28 39 58 63q9 7 5.5 13t-14.5 2q-39 -12 -87 -12q-86 0 -149.5 65t-63.5 172zM200 475q0 -46 29 -73.5t80 -27.5 q52 0 81.5 27.5t29.5 73.5q0 49 -29.5 77t-81.5 28q-51 0 -80 -28t-29 -77z" />
<glyph unicode=":" horiz-adv-x="273" d="M50 83q0 44 24 68.5t67 24.5q44 0 68 -24.5t24 -68.5t-24.5 -68.5t-67.5 -24.5t-67 24.5t-24 68.5zM50 408q0 44 24 68.5t67 24.5q44 0 68 -24.5t24 -68.5t-24.5 -68.5t-67.5 -24.5t-67 24.5t-24 68.5z" />
<glyph unicode=";" horiz-adv-x="274" d="M45 81q0 46 24 70.5t68 24.5q43 0 67.5 -28.5t24.5 -78.5q0 -69 -46 -151l-44 -79h-91l63 113q8 14 10 22.5t-2.5 13.5t-17.5 9q-25 8 -40.5 30.5t-15.5 53.5zM50 408q0 44 24 68.5t67 24.5q44 0 68 -24.5t24 -68.5t-24.5 -68.5t-67.5 -24.5t-67 24.5t-24 68.5z" />
<glyph unicode="&#x3c;" horiz-adv-x="629" d="M67 220v78q0 10 10 16l470 223q15 7 15 -10v-128q0 -11 -10 -15l-271 -125l271 -125q10 -4 10 -15v-128q0 -17 -15 -10l-470 223q-10 6 -10 16z" />
<glyph unicode="=" horiz-adv-x="600" d="M67 88v112q0 13 13 13h441q13 0 13 -13v-112q0 -13 -13 -13h-441q-13 0 -13 13zM67 320v112q0 13 13 13h441q13 0 13 -13v-112q0 -13 -13 -13h-441q-13 0 -13 13z" />
<glyph unicode="&#x3e;" horiz-adv-x="629" d="M67 -9v128q0 11 10 15l271 125l-271 125q-10 4 -10 15v128q0 17 15 10l470 -223q10 -6 10 -16v-78q0 -10 -10 -16l-470 -223q-15 -7 -15 10z" />
<glyph unicode="?" horiz-adv-x="582" d="M40 653q-4 12 8 16l68 23q87 28 170 28q121 0 183.5 -53t62.5 -147q0 -49 -22.5 -87.5t-72.5 -75.5l-65 -46q-20 -16 -20 -47v-34q0 -13 -13 -13h-132q-13 0 -13 13v34q0 56 19 94t66 72l69 49q25 17 25 41q0 20 -25.5 34.5t-61.5 14.5q-62 0 -123 -20l-64 -21 q-13 -5 -16 8zM187 81q0 44 24 68.5t67 24.5q44 0 68 -24.5t24 -68.5t-24.5 -68.5t-67.5 -24.5t-67 24.5t-24 68.5z" />
<glyph unicode="@" horiz-adv-x="868" d="M57 257q0 165 101.5 265t270.5 100q170 0 278.5 -97.5t108.5 -237.5q0 -83 -40.5 -125t-107.5 -42q-55 0 -90.5 31.5t-66.5 102.5q-9 20 -16 31t-22 21.5t-36 10.5q-27 0 -45 -15.5t-18 -42.5t18.5 -43t49.5 -16q20 0 37 5q7 3 13 -9q24 -55 63 -82q16 -12 -2 -17 l-46 -12q-31 -9 -68 -9q-90 0 -141 48.5t-51 135.5q0 83 47.5 130.5t134.5 47.5q104 0 162 -70q21 -26 35 -58.5t22 -48.5t20 -16q19 0 19 42q0 88 -73.5 149.5t-184.5 61.5q-108 0 -175.5 -66.5t-67.5 -174.5q0 -107 67 -173t177 -66q65 0 127 19l106 28q12 3 16 -9l29 -95 q4 -13 -9 -17l-109 -30q-74 -21 -160 -21q-171 0 -272 100t-101 264z" />
<glyph unicode="A" horiz-adv-x="748" d="M30 15l141 382q65 178 95 301q3 11 15 11h186q12 0 15 -11q30 -123 95 -301l141 -382q5 -15 -11 -15h-141q-11 0 -15 10l-30 84h-294l-30 -84q-4 -10 -15 -10h-141q-16 0 -11 15zM278 235h192l-14 40q-58 159 -73 238q-2 9 -9 9t-9 -9q-16 -82 -73 -238z" />
<glyph unicode="B" horiz-adv-x="659" d="M65 13v683q0 13 13 13h272q116 0 181 -50.5t65 -139.5q0 -100 -80 -139q-7 -3 -10 -6.5t-0.5 -7.5t9.5 -7q39 -15 71 -53.5t32 -106.5q0 -94 -65.5 -146.5t-183.5 -52.5h-291q-13 0 -13 13zM227 141h140q42 0 65 19.5t23 53.5q0 80 -106 80h-122v-153zM227 435h111 q95 0 95 67q0 31 -21.5 48t-61.5 17h-123v-132z" />
<glyph unicode="C" horiz-adv-x="630" d="M45 355q0 168 87 266.5t237 98.5q83 0 149 -21l46 -15q12 -5 8 -16l-36 -113q-5 -12 -16 -8l-47 15q-42 13 -104 13q-75 0 -118 -58t-43 -162q0 -105 43 -163.5t118 -58.5q58 0 103 15l47 14q13 5 16 -8l40 -109q4 -12 -8 -16l-48 -16q-72 -24 -150 -24q-150 0 -237 98.5 t-87 267.5z" />
<glyph unicode="D" horiz-adv-x="691" d="M65 13v683q0 13 13 13h248q149 0 234.5 -95.5t85.5 -259.5q0 -160 -87 -257t-233 -97h-248q-13 0 -13 13zM227 141h99q73 0 115 56t42 157q0 102 -42 157.5t-115 55.5h-99v-426z" />
<glyph unicode="E" horiz-adv-x="613" d="M65 13v683q0 13 13 13h481q14 0 11 -15l-32 -116q-3 -11 -14 -11h-297v-132h245q13 0 13 -13v-115q0 -13 -13 -13h-245v-153h327q13 0 13 -13v-115q0 -13 -13 -13h-476q-13 0 -13 13z" />
<glyph unicode="F" horiz-adv-x="608" d="M65 13v683q0 13 13 13h481q14 0 11 -15l-32 -116q-3 -11 -14 -11h-297v-166h255q13 0 13 -13v-115q0 -13 -13 -13h-255v-247q0 -13 -13 -13h-136q-13 0 -13 13z" />
<glyph unicode="G" horiz-adv-x="688" d="M45 354q0 169 86.5 267.5t236.5 98.5q73 0 148 -23l52 -17q12 -4 8 -16l-41 -110q-3 -13 -16 -8l-48 15q-42 14 -103 14q-75 0 -117.5 -58.5t-42.5 -162.5t42.5 -162.5t117.5 -58.5q62 0 100 13l11 3v110h-107q-14 0 -11 15l33 116q3 11 14 11h212q13 0 13 -13v-331 q0 -11 -11 -14l-93 -29l-12 -4q-67 -21 -149 -21q-150 0 -236.5 98t-86.5 267z" />
<glyph unicode="H" horiz-adv-x="714" d="M65 13v683q0 13 13 13h136q13 0 13 -13v-261h260v261q0 13 13 13h135q13 0 13 -13v-683q0 -13 -13 -13h-135q-13 0 -13 13v281h-260v-281q0 -13 -13 -13h-136q-13 0 -13 13z" />
<glyph unicode="I" horiz-adv-x="292" d="M65 13v683q0 13 13 13h136q13 0 13 -13v-683q0 -13 -13 -13h-136q-13 0 -13 13z" />
<glyph unicode="J" horiz-adv-x="475" d="M34 36l41 110q3 13 16 8l29 -10q29 -11 63 -11q70 0 70 102v461q0 13 13 13h135q13 0 13 -13v-460q0 -116 -61 -181.5t-170 -65.5q-57 0 -113 21l-28 10q-11 3 -8 16z" />
<glyph unicode="K" horiz-adv-x="701" d="M65 13v683q0 13 13 13h136q13 0 13 -13v-261h20q43 0 84 31.5t70 87.5l76 146q5 9 15 9h146q17 0 9 -15l-106 -203q-44 -86 -125 -118q-4 -2 -4.5 -6t4.5 -6q85 -38 131 -128l116 -218q8 -15 -10 -15h-149q-10 0 -15 9l-81 155q-32 61 -74.5 95.5t-85.5 34.5h-21v-281 q0 -13 -13 -13h-136q-13 0 -13 13z" />
<glyph unicode="L" horiz-adv-x="576" d="M65 13v683q0 13 13 13h136q13 0 13 -13v-555h290q13 0 13 -13v-115q0 -13 -13 -13h-439q-13 0 -13 13z" />
<glyph unicode="M" horiz-adv-x="845" d="M65 13v683q0 13 13 13h202q11 0 14 -11q18 -57 22 -68l52 -151q33 -95 47 -152q2 -9 8 -9t8 9q18 77 44 152l54 151q11 27 22 68q3 11 15 11h201q13 0 13 -13v-683q0 -13 -13 -13h-135q-13 0 -13 13v211q0 164 12 252q1 10 -5 12t-9 -8q-10 -27 -32 -81l-55 -152 q-5 -15 -17 -50.5t-16 -49.5q-3 -11 -14 -11h-121q-11 0 -14 11q-29 87 -34 100l-55 153q-5 13 -15.5 39.5t-15.5 40.5q-4 10 -10 8t-5 -12q14 -102 14 -252v-211q0 -13 -13 -13h-136q-13 0 -13 13z" />
<glyph unicode="N" horiz-adv-x="732" d="M65 13v683q0 13 13 13h178q11 0 15 -10q7 -14 51 -106l143 -290q20 -44 36 -73q5 -12 11.5 -9.5t4.5 13.5q-11 68 -11 180v282q0 13 13 13h135q13 0 13 -13v-683q0 -13 -13 -13h-178q-11 0 -15 10q-11 25 -50 106l-142 288q-18 36 -36 75q-6 11 -12 8.5t-5 -12.5 q11 -77 11 -182v-280q0 -13 -13 -13h-136q-13 0 -13 13z" />
<glyph unicode="O" horiz-adv-x="727" d="M45 355q0 169 85.5 267t233.5 98t233 -98t85 -267q0 -168 -85.5 -267t-232.5 -99q-148 0 -233.5 98.5t-85.5 267.5zM208 355q0 -103 41.5 -162.5t114.5 -59.5t114 59.5t41 162.5q0 105 -41 162.5t-114 57.5t-114.5 -58t-41.5 -162z" />
<glyph unicode="P" horiz-adv-x="646" d="M65 13v683q0 13 13 13h270q120 0 186.5 -62.5t66.5 -173.5q0 -117 -76 -182t-212 -65h-86v-213q0 -13 -13 -13h-136q-13 0 -13 13zM227 367h86q59 0 92 28t33 78q0 44 -23.5 69t-66.5 25h-121v-200z" />
<glyph unicode="Q" horiz-adv-x="728" d="M45 354q0 169 86 267.5t233 98.5t232.5 -98.5t85.5 -267.5q0 -88 -29 -164.5t-78 -105.5q-9 -5 -9 -8t9 -6q41 -15 66 -34t50 -52l45 -61q8 -10 -2 -18l-100 -78q-10 -8 -18 2l-48 64q-36 48 -83 72t-121 24q-147 0 -233 98.5t-86 266.5zM208 354q0 -102 42 -161.5 t114 -59.5q73 0 114 59t41 162q0 105 -41 163t-114 58q-72 0 -114 -58.5t-42 -162.5z" />
<glyph unicode="R" horiz-adv-x="683" d="M65 13v683q0 13 13 13h279q119 0 185.5 -57.5t66.5 -159.5q0 -64 -34 -110.5t-84 -68.5q-18 -9 -1 -19q51 -31 87 -110l70 -169q5 -15 -10 -15h-144q-11 0 -15 10l-44 107q-30 73 -66 104t-113 31h-28v-239q0 -13 -13 -13h-136q-13 0 -13 13zM227 393h109q110 0 110 87 q0 40 -24.5 63.5t-64.5 23.5h-130v-174z" />
<glyph unicode="S" horiz-adv-x="620" d="M44 59l40 111q5 12 16 8l70 -21q79 -24 146 -24q100 0 100 66q0 40 -90 74l-84 32q-104 39 -145.5 84t-41.5 126q0 97 68.5 151t188.5 54q82 0 160 -26l66 -22q12 -4 9 -16l-41 -112q-5 -12 -16 -8l-59 18q-70 21 -119 21q-42 0 -68 -16.5t-26 -43.5q0 -25 20.5 -40 t67.5 -32l84 -31q105 -39 147 -85.5t42 -127.5q0 -103 -67.5 -156.5t-195.5 -53.5q-96 0 -197 33l-66 21q-12 4 -9 16z" />
<glyph unicode="T" horiz-adv-x="652" d="M35 580v116q0 13 13 13h556q13 0 13 -13v-116q0 -13 -13 -13h-197v-554q0 -13 -13 -13h-135q-13 0 -13 13v554h-198q-13 0 -13 13z" />
<glyph unicode="U" horiz-adv-x="678" d="M55 293v403q0 13 13 13h136q13 0 13 -13v-403q0 -77 32 -118.5t90 -41.5t90 41.5t32 118.5v403q0 13 13 13h135q13 0 13 -13v-403q0 -145 -74 -224.5t-209 -79.5q-134 0 -209 79.5t-75 224.5z" />
<glyph unicode="V" horiz-adv-x="727" d="M25 694q-5 15 11 15h141q11 0 15 -10l96 -265q47 -128 66 -231q1 -6 5.5 -8.5t8.5 0t5 8.5q19 103 66 231l96 265q4 10 15 10h141q16 0 11 -15l-141 -383q-56 -156 -94 -300q-3 -11 -15 -11h-177q-12 0 -15 11q-38 144 -94 300z" />
<glyph unicode="W" horiz-adv-x="1018" d="M34 695q-5 14 11 14h138q12 0 15 -11l68 -270q26 -106 37 -220q0 -6 4.5 -9t8.5 -0.5t5 9.5q18 126 44 220l73 270q3 11 14 11h114q11 0 14 -11l74 -270q26 -94 44 -220q0 -7 4.5 -9.5t8.5 0.5t4 9q8 104 37 220l68 270q3 11 15 11h138q16 0 11 -14l-123 -480 q-27 -103 -46 -203q-1 -12 -14 -12h-183q-12 0 -14 12q-18 96 -36 166l-31 130q-9 39 -20 103q-1 7 -4.5 9.5t-7 0t-4.5 -9.5q-10 -57 -20 -103l-31 -130q-13 -56 -36 -166q-2 -12 -14 -12h-183q-13 0 -14 12q-19 100 -46 203z" />
<glyph unicode="X" horiz-adv-x="719" d="M53 15l123 232q34 64 86 99q1 1 4 2.5t4.5 3t1.5 4.5q2 5 -4 8q-58 36 -90 98l-122 232q-8 15 9 15h147q10 0 15 -9l121 -231q11 -23 22 0l122 231q4 9 15 9h147q17 0 9 -15l-122 -231q-32 -64 -91 -99q-4 -3 -4 -8q0 -3 1 -4.5t5 -3.5t5 -2q55 -36 86 -99l123 -232 q8 -15 -10 -15h-147q-11 0 -15 9l-126 234q-4 8 -6.5 10t-5 0t-6.5 -10l-125 -234q-5 -9 -15 -9h-147q-18 0 -10 15z" />
<glyph unicode="Y" horiz-adv-x="696" d="M28 694q-8 15 10 15h147q11 0 15 -9l70 -128q38 -70 69 -156q3 -9 9.5 -9t9.5 9q24 71 69 156l69 128q4 9 15 9h147q18 0 10 -15l-125 -234q-51 -97 -69 -136t-31.5 -94t-13.5 -123v-94q0 -13 -13 -13h-135q-13 0 -13 13v94q0 97 -22 159t-93 194z" />
<glyph unicode="Z" horiz-adv-x="636" d="M56 30q41 63 97 170l124 239q40 85 65 111q5 4 6 8t-2 6.5t-9 2.5h-261q-13 0 -13 13v116q0 13 13 13h492q10 0 16.5 -10t0.5 -20q-52 -77 -98 -169l-124 -240q-37 -68 -70 -112q-7 -10 -4.5 -13.5t14.5 -3.5h258q14 0 11 -15l-32 -115q-3 -11 -14 -11h-453 q-10 0 -16.5 10t-0.5 20z" />
<glyph unicode="[" horiz-adv-x="390" d="M85 -88v839q0 13 13 13h214q13 0 13 -13v-114q0 -13 -13 -13h-82v-586h82q13 0 13 -13v-113q0 -13 -13 -13h-214q-13 0 -13 13z" />
<glyph unicode="\" horiz-adv-x="572" d="M44 751q-7 15 10 15h124q11 0 15 -10l325 -842q7 -15 -10 -15h-123q-11 0 -15 10z" />
<glyph unicode="]" horiz-adv-x="390" d="M65 25q0 13 13 13h82v586h-82q-13 0 -13 13v114q0 13 13 13h214q13 0 13 -13v-839q0 -13 -13 -13h-214q-13 0 -13 13v113z" />
<glyph unicode="^" horiz-adv-x="532" d="M45 364l152 328q6 10 16 10h105q10 0 16 -10l152 -328q7 -15 -10 -15h-141q-11 0 -15 10l-54 142l-55 -142q-4 -10 -15 -10h-141q-17 0 -10 15z" />
<glyph unicode="_" horiz-adv-x="535" d="M-15 -93q0 13 13 13h539q13 0 13 -13v-112q0 -13 -13 -13h-539q-13 0 -13 13v112z" />
<glyph unicode="`" horiz-adv-x="341" d="M57 712q-9 16 9 16h147q11 0 15 -10l60 -146q3 -7 0 -11t-10 -4h-107q-10 0 -16 8z" />
<glyph unicode="a" horiz-adv-x="524" d="M30 149q0 70 52.5 109t145.5 39h94v2q-3 32 -29 50t-69 18q-28 0 -65 -10l-38 -11q-12 -3 -16 9l-31 104q-4 13 9 16l39 11q59 16 110 16q114 0 177.5 -51t63.5 -143v-295q0 -13 -13 -13h-75q-10 0 -16 9l-9 18q-9 19 -32 0q-43 -38 -108 -38q-89 0 -139.5 42t-50.5 118z M178 160q0 -44 57 -44q78 0 87 80v2h-94q-22 0 -36 -10.5t-14 -27.5z" />
<glyph unicode="b" horiz-adv-x="573" d="M55 68v647q0 13 13 13h133q13 0 13 -13v-109q0 -72 -24 -123q-6 -13 0 -18.5t18 3.5q49 34 113 34q100 0 158 -69t58 -187q0 -119 -65 -188t-179 -69q-68 0 -122 22l-106 42q-10 4 -10 15zM212 151l20 -9q33 -13 61 -13q42 0 65.5 31t23.5 86q0 54 -23.5 84.5t-63.5 30.5 q-42 0 -62.5 -27t-20.5 -71v-112z" />
<glyph unicode="c" horiz-adv-x="481" d="M35 246q0 119 66 187.5t187 68.5q44 0 80 -10l55 -15q13 -4 9 -17l-32 -110q-4 -12 -16 -9l-40 11q-30 9 -56 9q-98 0 -98 -114q0 -56 24.5 -87t72.5 -31q28 0 61 10l40 10q12 3 16 -9l33 -109q4 -13 -9 -16l-57 -16q-35 -10 -86 -10q-119 0 -184.5 68.5t-65.5 188.5z " />
<glyph unicode="d" horiz-adv-x="573" d="M35 246q0 118 62.5 187t170.5 69q41 0 65 -12l26 -11v236q0 13 13 13h132q13 0 13 -13v-702q0 -13 -13 -13h-70q-10 0 -15 9l-16 24q-10 15 -25 0q-50 -44 -127 -44q-100 0 -158 69t-58 188zM190 246q1 -54 25 -85.5t66 -31.5q37 0 58.5 26.5t21.5 68.5v116l-20 9 q-29 12 -62 12q-42 0 -65.5 -30.5t-23.5 -84.5z" />
<glyph unicode="e" horiz-adv-x="521" d="M35 245q0 119 65.5 188t182.5 69q93 0 147.5 -45.5t54.5 -123.5q0 -118 -171 -142l-117 -17q27 -50 91 -50q31 0 64 7l60 13q12 3 15 -9l28 -104q3 -13 -10 -16l-62 -15q-48 -11 -95 -11q-121 0 -187 68.5t-66 187.5zM187 276l104 16q46 4 46 39q0 36 -60 36 q-35 0 -61.5 -23.5t-28.5 -67.5z" />
<glyph unicode="f" horiz-adv-x="413" d="M30 365v113q0 13 13 13h52v43q0 96 56 150.5t156 54.5q38 0 78 -13l21 -6q12 -5 8 -16l-33 -110q-5 -12 -16 -8l-17 5q-22 7 -41 7q-25 0 -39.5 -17t-14.5 -47v-43h113q13 0 13 -13v-113q0 -13 -13 -13h-113v-339q0 -13 -13 -13h-132q-13 0 -13 13v339h-52q-13 0 -13 13z " />
<glyph unicode="g" horiz-adv-x="568" d="M35 242q0 123 65.5 191.5t180.5 68.5q69 0 121 -21l105 -42q10 -4 10 -15v-402q0 -122 -68.5 -187t-191.5 -65q-63 0 -103 11l-55 15q-13 4 -9 17l33 109q4 12 16 9l39 -11q32 -9 72 -9q106 0 137 77q6 14 6 31q0 15 -16 4q-45 -34 -120 -34q-104 0 -163 68.5t-59 184.5z M190 245q0 -53 22.5 -84.5t63.5 -31.5q85 0 85 101v110l-20 9q-27 12 -61 12q-43 0 -66.5 -30.5t-23.5 -85.5z" />
<glyph unicode="h" horiz-adv-x="554" d="M55 13v702q0 13 13 13h133q13 0 13 -13v-109q0 -73 -25 -126q-5 -10 0 -15t17 2q50 35 108 35q89 0 139.5 -49t50.5 -136v-304q0 -13 -13 -13h-133q-13 0 -13 13v284q0 31 -15 47.5t-41 16.5q-73 0 -75 -102v-246q0 -13 -13 -13h-133q-13 0 -13 13z" />
<glyph unicode="i" horiz-adv-x="309" d="M30 365v113q0 13 13 13h197q13 0 13 -13v-465q0 -13 -13 -13h-132q-13 0 -13 13v339h-52q-13 0 -13 13zM72 647q0 43 23.5 67t65.5 24q43 0 66 -23.5t23 -67.5q0 -43 -23.5 -67.5t-65.5 -24.5t-65.5 24.5t-23.5 67.5z" />
<glyph unicode="j" horiz-adv-x="309" d="M7 -115q-6 11 5 17l18 11q65 38 65 103v336h-52q-13 0 -13 13v113q0 13 13 13h197q13 0 13 -13v-462q0 -74 -36.5 -129.5t-114.5 -100.5l-22 -12q-11 -8 -17 5zM73 647q0 43 23.5 67t65.5 24q43 0 66 -23.5t23 -67.5q0 -43 -23.5 -67.5t-65.5 -24.5t-65.5 24.5 t-23.5 67.5z" />
<glyph unicode="k" horiz-adv-x="569" d="M55 13v702q0 13 13 13h133q13 0 13 -13v-397h9q29 0 45.5 17t34.5 52l49 95q6 9 16 9h143q17 0 9 -15l-80 -156q-24 -46 -73 -65q-2 -1 -2.5 -3.5t2.5 -4.5q59 -27 79 -67l85 -165q8 -15 -9 -15h-143q-10 0 -16 9l-54 107q-17 32 -36 47.5t-51 15.5h-8v-166 q0 -13 -13 -13h-133q-13 0 -13 13z" />
<glyph unicode="l" horiz-adv-x="317" d="M55 148v567q0 13 13 13h133q13 0 13 -13v-567q0 -19 13 -19h6q13 3 17 -7l41 -104q5 -12 -6 -17q-27 -12 -58 -12q-80 0 -126 42t-46 117z" />
<glyph unicode="m" horiz-adv-x="828" d="M55 13v465q0 13 13 13h71q11 0 15 -9l13 -21q8 -11 14 -11t18 11q50 41 110 41q73 0 121 -45q16 -12 24.5 -11t22.5 12q54 44 114 44q90 0 138 -48.5t48 -136.5v-304q0 -13 -13 -13h-132q-13 0 -13 13v284q0 64 -53 64q-71 0 -71 -102v-246q0 -13 -13 -13h-132 q-13 0 -13 13v286q0 62 -53 62q-70 0 -70 -102v-246q0 -13 -13 -13h-133q-13 0 -13 13z" />
<glyph unicode="n" horiz-adv-x="554" d="M55 13v465q0 13 13 13h71q11 0 15 -9l13 -21q7 -11 13 -11t18 10q49 42 116 42q89 0 139.5 -49t50.5 -136v-304q0 -13 -13 -13h-133q-13 0 -13 13v284q0 31 -15 47.5t-41 16.5q-75 0 -75 -102v-246q0 -13 -13 -13h-133q-13 0 -13 13z" />
<glyph unicode="o" horiz-adv-x="558" d="M35 246q0 117 65.5 186.5t178.5 69.5q112 0 177.5 -69.5t65.5 -186.5q0 -119 -65.5 -188t-177.5 -69q-113 0 -178.5 69t-65.5 188zM190 246q0 -55 24 -86t65 -31t64.5 31t23.5 86q0 54 -23.5 84.5t-64.5 30.5t-65 -30.5t-24 -84.5z" />
<glyph unicode="p" horiz-adv-x="573" d="M55 -206v684q0 13 13 13h71q11 0 15 -9l15 -24q10 -15 25 -1q52 45 128 45q100 0 157.5 -69t57.5 -187q0 -119 -62 -188t-170 -69q-39 0 -67 12l-24 10v-217q0 -13 -13 -13h-133q-13 0 -13 13zM212 151l20 -9q25 -13 61 -13q43 0 66 31t23 86q0 54 -23.5 84.5t-66.5 30.5 q-38 0 -59 -26.5t-21 -72.5v-111z" />
<glyph unicode="q" horiz-adv-x="568" d="M35 245q0 119 65.5 188t178.5 69q69 0 123 -22l105 -42q10 -4 10 -15v-629q0 -13 -13 -13h-132q-13 0 -13 13v91q0 71 25 126q5 9 -0.5 14.5t-17.5 -1.5q-47 -35 -114 -35q-100 0 -158.5 69t-58.5 187zM190 245q0 -54 22.5 -85t61.5 -31q87 0 87 98v113l-18 8 q-32 13 -64 13q-42 0 -65.5 -30.5t-23.5 -85.5z" />
<glyph unicode="r" horiz-adv-x="416" d="M55 13v465q0 13 13 13h71q11 0 15 -9l26 -40q7 -10 11.5 -11t13.5 8q32 34 66 47.5t87 15.5q13 0 13 -13v-115q0 -13 -13 -13q-83 -4 -113.5 -60.5t-30.5 -206.5v-81q0 -13 -13 -13h-133q-13 0 -13 13z" />
<glyph unicode="s" horiz-adv-x="484" d="M44 36l30 106q3 12 15 9l47 -12q63 -16 123 -16q39 0 39 27q0 23 -29 30l-79 20q-73 17 -107 51t-34 91q0 76 51.5 118t143.5 42q58 0 130 -16l50 -12q14 -3 9 -16l-30 -104q-3 -12 -15 -9l-51 12q-45 10 -93 10q-41 0 -41 -25q0 -18 26 -26l85 -20q72 -17 105.5 -52.5 t33.5 -93.5q0 -76 -51.5 -118.5t-142.5 -42.5q-81 0 -153 18l-53 13q-14 3 -9 16z" />
<glyph unicode="t" horiz-adv-x="419" d="M30 365v113q0 13 13 13h52v109q0 11 11 15l132 44q15 5 15 -11v-157h113q13 0 13 -13v-113q0 -13 -13 -13h-113v-182q0 -41 26 -41q14 0 25 4q13 5 18 -6l47 -96q5 -12 -4 -18q-36 -24 -86 -24q-87 0 -135.5 47.5t-48.5 133.5v182h-52q-13 0 -13 13z" />
<glyph unicode="u" horiz-adv-x="554" d="M50 174v304q0 13 13 13h133q13 0 13 -13v-284q0 -31 15 -47.5t41 -16.5q75 0 75 102v246q0 13 13 13h133q13 0 13 -13v-465q0 -13 -13 -13h-71q-11 0 -15 9l-13 21q-7 11 -13 11t-18 -10q-49 -42 -116 -42q-89 0 -139.5 49t-50.5 136z" />
<glyph unicode="v" horiz-adv-x="565" d="M26 476q-7 15 10 15h137q11 0 15 -10l30 -84q39 -111 56 -210q1 -6 5 -8.5t8 0t5 8.5q13 98 55 210l30 84q4 10 15 10h137q17 0 10 -15l-68 -183q-62 -165 -94 -282q-3 -11 -14 -11h-160q-11 0 -14 11q-30 108 -94 282z" />
<glyph unicode="w" horiz-adv-x="829" d="M34 476q-3 15 11 15h133q12 0 15 -11l23 -96q26 -109 42 -202q1 -6 5 -8.5t8.5 0t5.5 8.5q3 16 60 229l18 69q3 11 15 11h89q11 0 14 -11l19 -69q48 -174 60 -229q1 -6 5 -8.5t8 0t5 8.5q14 89 42 202l23 96q3 11 15 11h133q14 0 11 -15l-68 -247q-41 -147 -57 -218 q-3 -11 -15 -11h-164q-12 0 -15 11l-21 86l-11 41q-3 10 -7 27t-8.5 37t-6.5 28q-1 6 -4 8.5t-6 0t-4 -8.5t-9.5 -43t-11.5 -49l-11 -41q-12 -44 -21 -86q-3 -11 -15 -11h-164q-12 0 -15 11q-12 52 -57 218z" />
<glyph unicode="x" horiz-adv-x="554" d="M39 16l85 154q32 53 69 75q8 4 -1 9q-38 22 -67 70l-84 151q-9 16 9 16h144q10 0 15 -9l60 -115q8 -17 17 0l59 115q6 9 16 9h143q18 0 9 -16l-84 -151q-29 -52 -67 -70q-9 -5 -1 -9q43 -28 69 -75l85 -154q9 -16 -9 -16h-145q-10 0 -16 9l-59 114q-8 16 -17 0l-60 -114 q-5 -9 -15 -9h-146q-18 0 -9 16z" />
<glyph unicode="y" horiz-adv-x="565" d="M26 476q-7 15 10 15h137q11 0 15 -10l40 -113q34 -98 46 -183q1 -5 5 -7t8 0t5 8q12 85 46 182l39 112q4 11 15 11h137q17 0 10 -15l-255 -685q-4 -10 -15 -10h-134q-17 0 -10 15l36 97q24 74 18 129t-42 154z" />
<glyph unicode="z" horiz-adv-x="493" d="M51 25q26 40 53 92l76 153q20 41 48 71q9 11 -5 11h-153q-13 0 -13 13v113q0 13 13 13h368q10 0 15 -7.5t-1 -17.5q-22 -33 -50 -89l-78 -157q-21 -41 -46 -71q-9 -11 5 -11h152q14 0 11 -15l-32 -112q-3 -11 -14 -11h-336q-10 0 -14.5 8t1.5 17z" />
<glyph unicode="{" horiz-adv-x="411" d="M50 276v113q0 13 13 13h10q25 0 39 15t14 41v94q0 100 57 158t159 62q13 0 13 -13v-114q0 -13 -13 -14q-34 -3 -53 -23.5t-19 -55.5v-95q0 -81 -62 -116q-15 -9 0 -17q62 -35 62 -119v-91q0 -36 19 -57.5t53 -24.5q13 -1 13 -14v-112q0 -13 -13 -13q-102 4 -159 61.5 t-57 159.5v92q0 57 -53 57h-10q-13 0 -13 13z" />
<glyph unicode="|" horiz-adv-x="316" d="M86 -207v962q0 13 13 13h119q13 0 13 -13v-962q0 -13 -13 -13h-119q-13 0 -13 13z" />
<glyph unicode="}" horiz-adv-x="411" d="M56 18q0 13 13 14q34 3 53 24.5t19 57.5v91q0 84 62 119q15 8 0 17q-62 35 -62 116v95q0 35 -19 55.5t-53 23.5q-13 1 -13 14v114q0 13 13 13q102 -4 159 -62t57 -158v-94q0 -26 14 -41t39 -15h10q13 0 13 -13v-113q0 -13 -13 -13h-10q-53 0 -53 -57v-92 q0 -102 -57 -159.5t-159 -61.5q-13 0 -13 13v112z" />
<glyph unicode="~" horiz-adv-x="597" d="M47 268l63 108q45 77 122 77q42 0 73 -24l43 -37q11 -6 17 -6q9 0 13 10l26 46q4 9 15 9h122q18 0 9 -16l-62 -111q-41 -74 -122 -74q-44 0 -73 24l-48 37q-7 6 -11 6q-8 0 -15 -13l-26 -43q-5 -9 -15 -9h-122q-8 0 -10.5 4.5t1.5 11.5z" />
<glyph unicode="&#xa2;" horiz-adv-x="478" d="M35 464q0 97 43.5 161.5t125.5 85.5v95q0 13 13 13h119q13 0 13 -13v-92q11 -3 23 -6t26.5 -7t22.5 -6q13 -3 9 -16l-33 -110q-4 -12 -16 -9l-40 11q-30 9 -56 9q-97 0 -97 -115q0 -118 96 -118q25 0 61 9l40 11q12 3 16 -9l33 -109q4 -13 -9 -16l-57 -16q-5 -2 -19 -4 v-96q0 -13 -13 -13h-119q-13 0 -13 13v99q-81 21 -125 85.5t-44 162.5z" />
<glyph unicode="&#xa3;" horiz-adv-x="608" d="M33 283v115q0 13 13 13h73v66q0 114 68 178.5t183 64.5q60 0 125 -26l31 -11q12 -4 7 -17l-44 -110q-4 -12 -17 -7l-31 12q-40 14 -71 14q-41 0 -67.5 -26t-26.5 -72v-66h127q13 0 13 -13v-115q0 -13 -13 -13h-127v-58q0 -45 -8 -65q-4 -8 -1.5 -11.5t10.5 -1.5 q42 6 121 6h149q13 0 13 -13v-114q0 -13 -13 -13h-458q-10 0 -16.5 10t-1.5 20l18 30q30 47 30 131v79h-73q-13 0 -13 13z" />
<glyph unicode="&#xa5;" horiz-adv-x="706" d="M33 694q-4 7 -1 11t11 4h147q11 0 15 -9l70 -128q38 -70 69 -156q3 -9 9.5 -9t9.5 9q24 71 69 156l69 128q5 9 15 9h147q8 0 11 -4t-1 -11q-7 -13 -65 -121.5t-88 -165.5h63q13 0 13 -13v-85q0 -13 -13 -13h-116q-6 -16 -16 -46h132q13 0 13 -13v-85q0 -13 -13 -13h-148 l-1 -32v-94q0 -13 -13 -13h-135q-13 0 -13 13v94l-1 32h-149q-13 0 -13 13v85q0 13 13 13h133q-10 30 -16 46h-117q-13 0 -13 13v85q0 13 13 13h63q-30 57 -87.5 165t-65.5 122z" />
<glyph unicode="&#xa8;" horiz-adv-x="445" d="M40 655q0 39 21 60.5t59 21.5t59 -21t21 -61q0 -39 -21 -61t-59 -22t-59 22t-21 61zM241 655q0 39 21 60.5t59 21.5t59 -21t21 -61q0 -39 -21 -61t-59 -22t-59 22t-21 61z" />
<glyph unicode="&#xa9;" horiz-adv-x="789" d="M38 354q0 165 98 265.5t258 100.5q161 0 259 -100.5t98 -265.5q0 -164 -98 -264.5t-259 -100.5q-160 0 -258 100.5t-98 264.5zM119 354q0 -128 75.5 -206.5t199.5 -78.5t200 78.5t76 206.5t-76 206t-200 78t-199.5 -78t-75.5 -206zM221 355q0 90 47 143t127 53 q42 0 82 -12l21 -7q11 -4 8 -16l-19 -54q-5 -12 -16 -8l-20 6q-27 8 -56 8q-40 0 -63 -29.5t-23 -83.5t23 -84t63 -30q35 0 56 7l20 6q12 3 16 -9l19 -52q3 -12 -8 -16l-21 -7q-39 -11 -82 -11q-80 0 -127 53t-47 143z" />
<glyph unicode="&#xab;" horiz-adv-x="672" d="M57 246v1q0 10 5 16l116 175q6 8 16 8h139q8 0 10.5 -4.5t-2.5 -11.5l-126 -184l126 -184q5 -7 2.5 -11.5t-10.5 -4.5h-136q-11 0 -16 8l-119 176q-5 6 -5 16zM320 246v1q0 10 5 16l116 175q6 8 16 8h139q8 0 10.5 -4.5t-2.5 -11.5l-126 -184l126 -184q5 -7 2.5 -11.5 t-10.5 -4.5h-136q-11 0 -16 8l-119 176q-5 6 -5 16z" />
<glyph unicode="&#xad;" d="M67 204v112q0 13 13 13h275q13 0 13 -13v-112q0 -13 -13 -13h-275q-13 0 -13 13z" />
<glyph unicode="&#xae;" horiz-adv-x="789" d="M38 354q0 165 98 265.5t258 100.5q161 0 259 -100.5t98 -265.5q0 -164 -98 -264.5t-259 -100.5q-160 0 -258 100.5t-98 264.5zM119 354q0 -128 75.5 -206.5t199.5 -78.5t200 78.5t76 206.5t-76 206t-200 78t-199.5 -78t-75.5 -206zM257 184v340q0 13 13 13h139 q62 0 95 -29.5t33 -82.5q0 -35 -17.5 -58.5t-42.5 -32.5q-11 -4 -1 -10q27 -17 48 -60l33 -78q5 -15 -10 -15h-64q-11 0 -15 10l-20 48q-17 39 -34.5 54.5t-57.5 15.5h-13v-115q0 -13 -13 -13h-60q-13 0 -13 13zM343 374h53q27 0 44 11.5t17 31.5t-14 30t-34 10h-66v-83z " />
<glyph unicode="&#xb4;" horiz-adv-x="341" d="M53 572l60 146q4 10 15 10h147q18 0 9 -16l-98 -147q-6 -8 -16 -8h-107q-7 0 -10 4t0 11z" />
<glyph unicode="&#xb8;" horiz-adv-x="349" d="M80 -200l25 73q4 12 16 8l12 -4q12 -3 27 -3q19 0 19 18q0 19 -22 19h-37q-10 0 -15 9q-4 4 -1 15l27 79q4 11 15 11h57q7 0 10 -4t0 -11l-17 -41h7q29 0 49.5 -26t20.5 -67q0 -48 -29.5 -77t-83.5 -29q-27 0 -56 9l-16 5q-12 5 -8 16z" />
<glyph unicode="&#xbb;" horiz-adv-x="672" d="M68 62l126 184l-126 184q-5 7 -2.5 11.5t10.5 4.5h139q10 0 16 -8l116 -175q5 -6 5 -16v-1q0 -10 -5 -16l-119 -176q-6 -8 -16 -8h-136q-8 0 -10.5 4.5t2.5 11.5zM331 62l126 184l-126 184q-5 7 -2.5 11.5t10.5 4.5h139q10 0 16 -8l116 -175q5 -6 5 -16v-1q0 -10 -5 -16 l-119 -176q-6 -8 -16 -8h-136q-8 0 -10.5 4.5t2.5 11.5z" />
<glyph unicode="&#xd3;" horiz-adv-x="727" d="M45 355q0 169 85.5 267t233.5 98t233 -98t85 -267q0 -168 -85.5 -267t-232.5 -99q-148 0 -233.5 98.5t-85.5 267.5zM208 355q0 -103 41.5 -162.5t114.5 -59.5t114 59.5t41 162.5q0 105 -41 162.5t-114 57.5t-114.5 -58t-41.5 -162zM281 801l65 117q4 9 15 9h175 q9 0 11 -5t-4 -11l-112 -119q-6 -7 -16 -7h-125q-18 0 -9 16z" />
<glyph unicode="&#xf3;" horiz-adv-x="558" d="M35 246q0 117 65.5 186.5t178.5 69.5q112 0 177.5 -69.5t65.5 -186.5q0 -119 -65.5 -188t-177.5 -69q-113 0 -178.5 69t-65.5 188zM190 246q0 -55 24 -86t65 -31t64.5 31t23.5 86q0 54 -23.5 84.5t-64.5 30.5t-65 -30.5t-24 -84.5zM207 572l60 146q4 10 15 10h147 q18 0 9 -16l-98 -147q-6 -8 -16 -8h-107q-7 0 -10 4t0 11z" />
<glyph unicode="&#x104;" horiz-adv-x="748" d="M30 15l141 382q65 178 95 301q3 11 15 11h186q12 0 15 -11q30 -123 95 -301l143 -389q3 -9 2 -16q-1 -16 -35 -45l-49 -42q-9 -8 -9 -16q0 -12 11 -12q12 0 27 5l10 3q10 5 13 -8l28 -77q4 -12 -8 -16l-15 -5q-23 -9 -56 -9q-56 0 -90.5 24.5t-34.5 67.5q0 46 36 77 l30 27q17 15 15 24.5t-21 9.5h-8q-11 0 -15 10l-30 84h-294l-30 -84q-4 -10 -15 -10h-141q-16 0 -11 15zM278 235h192l-14 40q-58 159 -73 238q-2 9 -9 9t-9 -9q-16 -82 -73 -238z" />
<glyph unicode="&#x105;" horiz-adv-x="524" d="M30 149q0 70 52.5 109t145.5 39h94v2q-3 32 -29 50t-69 18q-28 0 -65 -10l-38 -11q-12 -3 -16 9l-31 104q-4 13 9 16l39 11q59 16 110 16q114 0 177.5 -51t63.5 -143v-296q29 -4 -17 -48l-8 -7l-49 -42q-9 -8 -9 -16q0 -12 11 -12q9 0 34 7q13 5 16 -7l28 -77 q4 -12 -8 -16l-15 -5q-23 -9 -56 -9q-57 0 -91 24.5t-34 67.5q0 44 36 77l61 55l-12 23q-9 19 -32 0q-43 -38 -108 -38q-89 0 -139.5 42t-50.5 118zM178 160q0 -14 6.5 -24t19.5 -15t31 -5q78 0 87 80v2h-94q-22 0 -36 -10.5t-14 -27.5z" />
<glyph unicode="&#x106;" horiz-adv-x="630" d="M45 355q0 168 87 266.5t237 98.5q83 0 149 -21l46 -15q12 -5 8 -16l-36 -113q-5 -12 -16 -8l-47 15q-42 13 -104 13q-75 0 -118 -58t-43 -162q0 -105 43 -163.5t118 -58.5q58 0 103 15l47 14q13 5 16 -8l40 -109q4 -12 -8 -16l-48 -16q-72 -24 -150 -24q-150 0 -237 98.5 t-87 267.5zM259 799l65 117q4 9 15 9h175q9 0 11 -5t-4 -11l-112 -119q-6 -7 -16 -7h-125q-18 0 -9 16z" />
<glyph unicode="&#x107;" horiz-adv-x="481" d="M35 246q0 119 66 187.5t187 68.5q44 0 80 -10l55 -15q13 -4 9 -17l-32 -110q-4 -12 -16 -9l-40 11q-30 9 -56 9q-98 0 -98 -114q0 -56 24.5 -87t72.5 -31q28 0 61 10l40 10q12 3 16 -9l33 -109q4 -13 -9 -16l-57 -16q-35 -10 -86 -10q-119 0 -184.5 68.5t-65.5 188.5z M187 572l60 146q4 10 15 10h147q18 0 9 -16l-98 -147q-6 -8 -16 -8h-107q-7 0 -10 4t0 11z" />
<glyph unicode="&#x118;" horiz-adv-x="613" d="M65 13v683q0 13 13 13h481q14 0 11 -15l-32 -116q-3 -11 -14 -11h-297v-132h245q13 0 13 -13v-115q0 -13 -13 -13h-245v-153h327q13 0 13 -13v-128q2 0 -14 -16l-78 -79q-9 -11 -9 -16q0 -12 11 -12q14 0 35 8q13 5 17 -7l28 -77q3 -12 -8 -16l-17 -6q-22 -9 -56 -9 q-57 0 -91 24.5t-34 67.5q0 37 40 77l25 27q23 31 3 34h-341q-13 0 -13 13z" />
<glyph unicode="&#x119;" horiz-adv-x="521" d="M35 245q0 119 65.5 188t182.5 69q93 0 147.5 -45.5t54.5 -123.5q0 -118 -171 -142l-117 -17q27 -50 91 -50q31 0 64 7l60 13q12 3 15 -9l28 -104q3 -13 -10 -16v-2q-4 -8 -15 -17l-109 -94q-7 -7 -7 -14q0 -11 13 -11q7 0 24 5l11 4q11 4 16 -8l27 -77q3 -12 -9 -16 l-21 -7q-24 -8 -51 -8q-59 0 -92 25t-33 69q0 46 41 80l40 34q5 3 4.5 7t-7.5 4q-116 3 -179 71t-63 185zM187 276l104 16q46 4 46 39q0 36 -60 36q-35 0 -61.5 -23.5t-28.5 -67.5z" />
<glyph unicode="&#x141;" horiz-adv-x="640" d="M35 214v127q0 11 10 15l85 38v302q0 13 13 13h136q13 0 13 -13v-229l152 67q15 7 15 -10v-127q0 -11 -10 -15l-157 -70v-171h290q13 0 13 -13v-115q0 -13 -13 -13h-439q-13 0 -13 13v226l-80 -35q-15 -7 -15 10z" />
<glyph unicode="&#x142;" horiz-adv-x="406" d="M30 251v121q0 11 10 15l74 28v300q0 13 13 13h133q13 0 13 -13v-240l78 29q15 7 15 -10v-123q0 -11 -10 -15l-83 -31v-177q0 -19 13 -19h6q13 3 17 -7l41 -104q5 -12 -6 -17q-27 -12 -58 -12q-80 0 -126 42t-46 117v118l-69 -25q-15 -7 -15 10z" />
<glyph unicode="&#x143;" horiz-adv-x="732" d="M65 13v683q0 13 13 13h178q11 0 15 -10q7 -14 51 -106l143 -290q20 -44 36 -73q5 -12 11.5 -9.5t4.5 13.5q-11 68 -11 180v282q0 13 13 13h135q13 0 13 -13v-683q0 -13 -13 -13h-178q-11 0 -15 10q-11 25 -50 106l-142 288q-18 36 -36 75q-6 11 -12 8.5t-5 -12.5 q11 -77 11 -182v-280q0 -13 -13 -13h-136q-13 0 -13 13zM285 801l65 117q4 9 15 9h175q9 0 11 -5t-4 -11l-112 -119q-6 -7 -16 -7h-125q-18 0 -9 16z" />
<glyph unicode="&#x144;" horiz-adv-x="554" d="M55 13v465q0 13 13 13h71q11 0 15 -9l13 -21q7 -11 13 -11t18 10q49 42 116 42q89 0 139.5 -49t50.5 -136v-304q0 -13 -13 -13h-133q-13 0 -13 13v284q0 31 -15 47.5t-41 16.5q-75 0 -75 -102v-246q0 -13 -13 -13h-133q-13 0 -13 13zM205 572l60 146q4 10 15 10h147 q18 0 9 -16l-98 -147q-6 -8 -16 -8h-107q-7 0 -10 4t0 11z" />
<glyph unicode="&#x15a;" horiz-adv-x="620" d="M44 59l40 111q5 12 16 8l70 -21q79 -24 146 -24q100 0 100 66q0 40 -90 74l-84 32q-104 39 -145.5 84t-41.5 126q0 97 68.5 151t188.5 54q82 0 160 -26l66 -22q12 -4 9 -16l-41 -112q-5 -12 -16 -8l-59 18q-70 21 -119 21q-42 0 -68 -16.5t-26 -43.5q0 -25 20.5 -40 t67.5 -32l84 -31q105 -39 147 -85.5t42 -127.5q0 -103 -67.5 -156.5t-195.5 -53.5q-96 0 -197 33l-66 21q-12 4 -9 16zM222 799l65 117q5 9 15 9h175q9 0 11 -5t-4 -11l-112 -119q-6 -7 -16 -7h-125q-18 0 -9 16z" />
<glyph unicode="&#x15b;" horiz-adv-x="484" d="M44 36l30 106q3 12 15 9l47 -12q63 -16 123 -16q39 0 39 27q0 23 -29 30l-79 20q-73 17 -107 51t-34 91q0 76 51.5 118t143.5 42q58 0 130 -16l50 -12q14 -3 9 -16l-30 -104q-3 -12 -15 -9l-51 12q-45 10 -93 10q-41 0 -41 -25q0 -18 26 -26l85 -20q72 -17 105.5 -52.5 t33.5 -93.5q0 -76 -51.5 -118.5t-142.5 -42.5q-81 0 -153 18l-53 13q-14 3 -9 16zM169 572l60 146q4 10 15 10h147q18 0 9 -16l-98 -147q-6 -8 -16 -8h-107q-7 0 -10 4t0 11z" />
<glyph unicode="&#x179;" horiz-adv-x="636" d="M56 30q41 63 97 170l124 239q40 85 65 111q5 4 6 8t-2 6.5t-9 2.5h-261q-13 0 -13 13v116q0 13 13 13h492q10 0 16.5 -10t0.5 -20q-52 -77 -98 -169l-124 -240q-37 -68 -70 -112q-7 -10 -4.5 -13.5t14.5 -3.5h258q14 0 11 -15l-32 -115q-3 -11 -14 -11h-453 q-10 0 -16.5 10t-0.5 20zM238 801l65 117q5 9 15 9h175q9 0 11 -5t-4 -11l-112 -119q-6 -7 -16 -7h-125q-18 0 -9 16z" />
<glyph unicode="&#x17a;" horiz-adv-x="493" d="M51 25q26 40 53 92l76 153q20 41 48 71q9 11 -5 11h-153q-13 0 -13 13v113q0 13 13 13h368q10 0 15 -7.5t-1 -17.5q-22 -33 -50 -89l-78 -157q-21 -41 -46 -71q-9 -11 5 -11h152q14 0 11 -15l-32 -112q-3 -11 -14 -11h-336q-10 0 -14.5 8t1.5 17zM174 572l60 146 q4 10 15 10h147q18 0 9 -16l-98 -147q-6 -8 -16 -8h-107q-7 0 -10 4t0 11z" />
<glyph unicode="&#x17b;" horiz-adv-x="636" d="M56 30q41 63 97 170l124 239q40 85 65 111q5 4 6 8t-2 6.5t-9 2.5h-261q-13 0 -13 13v116q0 13 13 13h492q10 0 16.5 -10t0.5 -20q-52 -77 -98 -169l-124 -240q-37 -68 -70 -112q-7 -10 -4.5 -13.5t14.5 -3.5h258q14 0 11 -15l-32 -115q-3 -11 -14 -11h-453 q-10 0 -16.5 10t-0.5 20zM222 856q0 82 98 82q96 0 96 -82t-96 -82q-98 0 -98 82z" />
<glyph unicode="&#x17c;" horiz-adv-x="493" d="M51 25q26 40 53 92l76 153q20 41 48 71q9 11 -5 11h-153q-13 0 -13 13v113q0 13 13 13h368q10 0 15 -7.5t-1 -17.5q-22 -33 -50 -89l-78 -157q-21 -41 -46 -71q-9 -11 5 -11h152q14 0 11 -15l-32 -112q-3 -11 -14 -11h-336q-10 0 -14.5 8t1.5 17zM157 647q0 43 23.5 67 t65.5 24t65 -24t23 -67q0 -44 -23 -68t-65 -24t-65.5 24.5t-23.5 67.5z" />
<glyph unicode="&#x2c6;" horiz-adv-x="461" d="M58 573l97 147q6 8 16 8h118q10 0 16 -8l98 -147q9 -16 -9 -16h-95q-10 0 -16 7l-53 63l-52 -63q-6 -7 -16 -7h-95q-18 0 -9 16z" />
<glyph unicode="&#x2da;" horiz-adv-x="290" d="M41 642q0 44 28 69t77 25q48 0 75 -25t27 -69t-27 -69t-75 -25q-49 0 -77 25t-28 69zM104 642q0 -35 42 -35q40 0 40 35t-40 35q-42 0 -42 -35z" />
<glyph unicode="&#x2dc;" horiz-adv-x="452" d="M56 615l26 54q17 33 39 48t55 15q35 0 60 -18l24 -19q8 -7 16 -7q6 0 17 18l9 13q4 9 15 9h71q17 0 9 -15l-27 -55q-17 -33 -38.5 -47.5t-54.5 -14.5q-32 0 -63 20l-23 15q-11 8 -15 8q-8 0 -17 -16l-9 -14q-4 -9 -15 -9h-70q-17 0 -9 15z" />
<glyph unicode="&#x2000;" horiz-adv-x="469" />
<glyph unicode="&#x2001;" horiz-adv-x="938" />
<glyph unicode="&#x2002;" horiz-adv-x="469" />
<glyph unicode="&#x2003;" horiz-adv-x="938" />
<glyph unicode="&#x2004;" horiz-adv-x="312" />
<glyph unicode="&#x2005;" horiz-adv-x="234" />
<glyph unicode="&#x2006;" horiz-adv-x="156" />
<glyph unicode="&#x2007;" horiz-adv-x="156" />
<glyph unicode="&#x2008;" horiz-adv-x="117" />
<glyph unicode="&#x2009;" horiz-adv-x="187" />
<glyph unicode="&#x200a;" horiz-adv-x="52" />
<glyph unicode="&#x2010;" d="M67 204v112q0 13 13 13h275q13 0 13 -13v-112q0 -13 -13 -13h-275q-13 0 -13 13z" />
<glyph unicode="&#x2011;" d="M67 204v112q0 13 13 13h275q13 0 13 -13v-112q0 -13 -13 -13h-275q-13 0 -13 13z" />
<glyph unicode="&#x2012;" d="M67 204v112q0 13 13 13h275q13 0 13 -13v-112q0 -13 -13 -13h-275q-13 0 -13 13z" />
<glyph unicode="&#x2013;" horiz-adv-x="698" d="M67 204v112q0 13 13 13h539q13 0 13 -13v-112q0 -13 -13 -13h-539q-13 0 -13 13z" />
<glyph unicode="&#x2014;" horiz-adv-x="845" d="M67 204v112q0 13 13 13h686q13 0 13 -13v-112q0 -13 -13 -13h-686q-13 0 -13 13z" />
<glyph unicode="&#x2018;" horiz-adv-x="266" d="M44 558q0 62 59 131l35 39h87l-53 -62q-14 -17 -13 -25.5t18 -16.5q46 -24 46 -78q0 -41 -23.5 -63.5t-65.5 -22.5q-43 0 -66.5 25.5t-23.5 72.5z" />
<glyph unicode="&#x2019;" horiz-adv-x="266" d="M41 465l53 62q14 17 13 25.5t-18 16.5q-46 24 -46 78q0 41 23.5 63.5t65.5 22.5q43 0 66.5 -25.5t23.5 -72.5q0 -62 -59 -131l-35 -39h-87z" />
<glyph unicode="&#x201a;" horiz-adv-x="266" d="M41 -93l53 62q14 17 13 25.5t-18 16.5q-46 24 -46 78q0 41 23.5 63.5t65.5 22.5q43 0 66.5 -25.5t23.5 -72.5q0 -62 -59 -131l-35 -39h-87z" />
<glyph unicode="&#x201c;" horiz-adv-x="495" d="M44 558q0 62 59 131l35 39h87l-53 -62q-14 -17 -13 -25.5t18 -16.5q46 -24 46 -78q0 -41 -23.5 -63.5t-65.5 -22.5q-43 0 -66.5 25.5t-23.5 72.5zM273 558q0 62 59 131l35 39h87l-53 -62q-14 -17 -13 -25.5t18 -16.5q46 -24 46 -78q0 -41 -23.5 -63.5t-65.5 -22.5 q-43 0 -66.5 25.5t-23.5 72.5z" />
<glyph unicode="&#x201d;" horiz-adv-x="495" d="M41 465l53 62q14 17 13 25.5t-18 16.5q-46 24 -46 78q0 41 23.5 63.5t65.5 22.5q43 0 66.5 -25.5t23.5 -72.5q0 -62 -59 -131l-35 -39h-87zM270 465l53 62q14 17 13 25.5t-18 16.5q-46 24 -46 78q0 41 23.5 63.5t65.5 22.5q43 0 66.5 -25.5t23.5 -72.5q0 -62 -59 -131 l-35 -39h-87z" />
<glyph unicode="&#x201e;" horiz-adv-x="495" d="M41 -93l53 62q14 17 13 25.5t-18 16.5q-46 24 -46 78q0 41 23.5 63.5t65.5 22.5q43 0 66.5 -25.5t23.5 -72.5q0 -62 -59 -131l-35 -39h-87zM270 -93l53 62q14 17 13 25.5t-18 16.5q-46 24 -46 78q0 41 23.5 63.5t65.5 22.5q43 0 66.5 -25.5t23.5 -72.5q0 -62 -59 -131 l-35 -39h-87z" />
<glyph unicode="&#x2026;" horiz-adv-x="736" d="M50 82q0 44 24 68.5t67 24.5q44 0 68 -24.5t24 -68.5t-24.5 -68.5t-67.5 -24.5t-67 24.5t-24 68.5zM282 82q0 44 24 68.5t67 24.5q44 0 68 -24.5t24 -68.5t-24.5 -68.5t-67.5 -24.5t-67 24.5t-24 68.5zM513 82q0 44 24 68.5t67 24.5q44 0 68 -24.5t24 -68.5t-24.5 -68.5 t-67.5 -24.5t-67 24.5t-24 68.5z" />
<glyph unicode="&#x202f;" horiz-adv-x="187" />
<glyph unicode="&#x2039;" horiz-adv-x="409" d="M57 246v1q0 10 5 16l116 175q6 8 16 8h139q8 0 10.5 -4.5t-2.5 -11.5l-126 -184l126 -184q5 -7 2.5 -11.5t-10.5 -4.5h-136q-11 0 -16 8l-119 176q-5 6 -5 16z" />
<glyph unicode="&#x203a;" horiz-adv-x="409" d="M68 62l126 184l-126 184q-5 7 -2.5 11.5t10.5 4.5h139q10 0 16 -8l116 -175q5 -6 5 -16v-1q0 -10 -5 -16l-119 -176q-6 -8 -16 -8h-136q-8 0 -10.5 4.5t2.5 11.5z" />
<glyph unicode="&#x205f;" horiz-adv-x="234" />
<glyph unicode="&#x20ac;" horiz-adv-x="705" d="M35 243v77q0 13 13 13h72v22q0 22 1 32h-73q-13 0 -13 13v77q0 13 13 13h89q31 109 110.5 169.5t196.5 60.5q83 0 149 -21l46 -15q12 -5 8 -16l-36 -113q-5 -12 -16 -8l-47 15q-42 13 -104 13q-92 0 -134 -85h192q17 0 10 -15l-31 -78q-4 -10 -15 -10h-182q-1 -10 -1 -32 l1 -22h161q17 0 10 -15l-30 -78q-4 -10 -15 -10h-106q40 -97 140 -97q58 0 103 15l47 14q11 4 16 -8l40 -109q4 -12 -8 -16l-48 -16q-72 -24 -150 -24q-120 0 -200 63.5t-109 177.5h-87q-13 0 -13 13z" />
<glyph unicode="&#x2122;" horiz-adv-x="955" d="M24 620v76q0 13 13 13h338q13 0 13 -13v-76q0 -13 -13 -13h-114v-283q0 -13 -13 -13h-85q-13 0 -13 13v283h-113q-13 0 -13 13zM448 324v372q0 13 13 13h132q11 0 15 -11q10 -29 11 -31l13 -34q2 -5 18.5 -47.5t20.5 -60.5q1 -3 2.5 -4t3 0t2.5 4q3 13 39 108l13 34 q1 5 4.5 16t4.5 15q4 11 15 11h134q13 0 13 -13v-372q0 -13 -13 -13h-85q-13 0 -13 13v68q0 105 11 165q1 6 -3.5 7.5t-6.5 -3.5q-3 -9 -10 -25.5t-9 -20.5l-27 -69q-16 -37 -17 -42q-4 -10 -15 -10h-79q-11 0 -14 11q-3 7 -16 41l-27 69q-12 26 -20 46q-3 5 -7.5 3.5 t-3.5 -7.5q13 -71 13 -165v-68q0 -13 -13 -13h-86q-13 0 -13 13z" />
<glyph unicode="&#xe000;" horiz-adv-x="490" d="M0 0v490h490v-490h-490z" />
<hkern u1="&#x26;" u2="X" k="10" />
<hkern u1="&#x2c;" u2="j" k="19" />
<hkern u1="&#x2e;" u2="j" k="19" />
<hkern u1="&#x30;" u2="&#x3f;" k="29" />
<hkern u1="&#x30;" u2="&#x32;" k="10" />
<hkern u1="&#x40;" u2="&#x3f;" k="29" />
<hkern u1="A" u2="b" k="10" />
<hkern u1="B" u2="X" k="19" />
<hkern u1="D" u2="&#x3f;" k="29" />
<hkern u1="G" u2="\" k="47" />
<hkern u1="G" u2="Y" k="48" />
<hkern u1="G" u2="W" k="29" />
<hkern u1="G" u2="V" k="47" />
<hkern u1="G" u2="T" k="37" />
<hkern u1="K" u2="b" k="10" />
<hkern u1="L" u2="j" k="19" />
<hkern u1="O" u2="&#x3f;" k="29" />
<hkern u1="P" u2="X" k="19" />
<hkern u1="Q" u2="X" k="10" />
<hkern u1="Q" u2="J" k="19" />
<hkern u1="Q" u2="&#x3f;" k="29" />
<hkern u1="R" u2="Y" k="47" />
<hkern u1="X" u2="j" k="10" />
<hkern u1="X" u2="&#x26;" k="19" />
<hkern u1="Y" u2="&#x107;" k="112" />
<hkern u1="Z" u2="&#x104;" k="10" />
<hkern u1="Z" u2="J" k="10" />
<hkern u1="Z" u2="A" k="10" />
<hkern u1="Z" u2="&#x2f;" k="10" />
<hkern u1="\" u2="b" k="10" />
<hkern u1="l" u2="g" k="10" />
<hkern u1="q" u2="j" k="-37" />
<hkern u1="t" u2="g" k="10" />
<hkern u1="v" u2="g" k="10" />
<hkern u1="w" u2="g" k="10" />
<hkern u1="x" u2="b" k="5" />
<hkern u1="y" u2="g" k="10" />
<hkern u1="&#xa9;" u2="&#x3f;" k="29" />
<hkern u1="&#xab;" u2="b" k="5" />
<hkern u1="&#xae;" u2="&#x3f;" k="29" />
<hkern u1="&#xd3;" u2="&#x3f;" k="29" />
<hkern u1="&#x104;" u2="b" k="10" />
<hkern u1="&#x141;" u2="j" k="19" />
<hkern u1="&#x141;" u2="\" k="94" />
<hkern u1="&#x141;" u2="W" k="75" />
<hkern u1="&#x141;" u2="V" k="94" />
<hkern u1="&#x141;" u2="T" k="85" />
<hkern u1="&#x201a;" u2="j" k="19" />
<hkern u1="&#x201e;" u2="j" k="19" />
<hkern u1="&#x2026;" u2="j" k="19" />
<hkern u1="&#x2039;" u2="b" k="5" />
<hkern g1="lslash" 	g2="a,aogonek" 	k="10" />
<hkern g1="lslash" 	g2="hyphen,less,asciitilde,endash,emdash" 	k="19" />
<hkern g1="lslash" 	g2="c,d,e,g,o,q,oacute,cacute,eogonek" 	k="10" />
<hkern g1="lslash" 	g2="question" 	k="19" />
<hkern g1="lslash" 	g2="T" 	k="10" />
<hkern g1="lslash" 	g2="W" 	k="19" />
<hkern g1="lslash" 	g2="V,backslash" 	k="10" />
<hkern g1="U" 	g2="J" 	k="29" />
<hkern g1="U" 	g2="comma,period,quotesinglbase,quotedblbase,ellipsis" 	k="19" />
<hkern g1="U" 	g2="three" 	k="10" />
<hkern g1="U" 	g2="slash,A,Aogonek" 	k="29" />
<hkern g1="U" 	g2="five" 	k="10" />
<hkern g1="slash,seven,V" 	g2="lslash" 	k="19" />
<hkern g1="slash,seven,V" 	g2="s,sacute" 	k="57" />
<hkern g1="slash,seven,V" 	g2="t" 	k="10" />
<hkern g1="slash,seven,V" 	g2="J" 	k="95" />
<hkern g1="slash,seven,V" 	g2="u" 	k="29" />
<hkern g1="slash,seven,V" 	g2="v,w,y" 	k="19" />
<hkern g1="slash,seven,V" 	g2="four" 	k="95" />
<hkern g1="slash,seven,V" 	g2="x,guillemotright,guilsinglright" 	k="29" />
<hkern g1="slash,seven,V" 	g2="zero,at,C,G,O,Q,copyright,registered,Oacute,Cacute" 	k="29" />
<hkern g1="slash,seven,V" 	g2="z,zacute,zdotaccent" 	k="19" />
<hkern g1="slash,seven,V" 	g2="Lslash" 	k="47" />
<hkern g1="slash,seven,V" 	g2="nine" 	k="19" />
<hkern g1="slash,seven,V" 	g2="dollar,S,Sacute" 	k="29" />
<hkern g1="slash,seven,V" 	g2="X" 	k="10" />
<hkern g1="slash,seven,V" 	g2="comma,period,quotesinglbase,quotedblbase,ellipsis" 	k="104" />
<hkern g1="slash,seven,V" 	g2="three" 	k="19" />
<hkern g1="slash,seven,V" 	g2="a,aogonek" 	k="57" />
<hkern g1="slash,seven,V" 	g2="hyphen,less,asciitilde,endash,emdash" 	k="57" />
<hkern g1="slash,seven,V" 	g2="f" 	k="10" />
<hkern g1="slash,seven,V" 	g2="eight" 	k="47" />
<hkern g1="slash,seven,V" 	g2="quotedbl,quotesingle,asterisk,quoteleft,quoteright,quotedblleft,quotedblright,trademark" 	k="-9" />
<hkern g1="slash,seven,V" 	g2="i,j" 	k="10" />
<hkern g1="slash,seven,V" 	g2="ampersand" 	k="76" />
<hkern g1="slash,seven,V" 	g2="slash,A,Aogonek" 	k="95" />
<hkern g1="slash,seven,V" 	g2="colon,semicolon,m,n,p,r,nacute" 	k="29" />
<hkern g1="slash,seven,V" 	g2="c,d,e,g,o,q,oacute,cacute,eogonek" 	k="67" />
<hkern g1="slash,seven,V" 	g2="two" 	k="19" />
<hkern g1="slash,seven,V" 	g2="six" 	k="67" />
<hkern g1="slash,seven,V" 	g2="V,backslash" 	k="-9" />
<hkern g1="slash,seven,V" 	g2="five" 	k="19" />
<hkern g1="slash,seven,V" 	g2="sterling" 	k="76" />
<hkern g1="slash,seven,V" 	g2="cent" 	k="10" />
<hkern g1="W" 	g2="lslash" 	k="19" />
<hkern g1="W" 	g2="s,sacute" 	k="37" />
<hkern g1="W" 	g2="t" 	k="10" />
<hkern g1="W" 	g2="J" 	k="76" />
<hkern g1="W" 	g2="u" 	k="19" />
<hkern g1="W" 	g2="v,w,y" 	k="10" />
<hkern g1="W" 	g2="four" 	k="76" />
<hkern g1="W" 	g2="x,guillemotright,guilsinglright" 	k="19" />
<hkern g1="W" 	g2="zero,at,C,G,O,Q,copyright,registered,Oacute,Cacute" 	k="24" />
<hkern g1="W" 	g2="z,zacute,zdotaccent" 	k="29" />
<hkern g1="W" 	g2="Lslash" 	k="29" />
<hkern g1="W" 	g2="nine" 	k="19" />
<hkern g1="W" 	g2="dollar,S,Sacute" 	k="29" />
<hkern g1="W" 	g2="X" 	k="10" />
<hkern g1="W" 	g2="comma,period,quotesinglbase,quotedblbase,ellipsis" 	k="67" />
<hkern g1="W" 	g2="three" 	k="19" />
<hkern g1="W" 	g2="a,aogonek" 	k="48" />
<hkern g1="W" 	g2="hyphen,less,asciitilde,endash,emdash" 	k="38" />
<hkern g1="W" 	g2="f" 	k="10" />
<hkern g1="W" 	g2="eight" 	k="37" />
<hkern g1="W" 	g2="i,j" 	k="10" />
<hkern g1="W" 	g2="ampersand" 	k="57" />
<hkern g1="W" 	g2="slash,A,Aogonek" 	k="76" />
<hkern g1="W" 	g2="colon,semicolon,m,n,p,r,nacute" 	k="19" />
<hkern g1="W" 	g2="c,d,e,g,o,q,oacute,cacute,eogonek" 	k="48" />
<hkern g1="W" 	g2="two" 	k="19" />
<hkern g1="W" 	g2="six" 	k="48" />
<hkern g1="W" 	g2="five" 	k="19" />
<hkern g1="X" 	g2="lslash" 	k="19" />
<hkern g1="X" 	g2="s,sacute" 	k="10" />
<hkern g1="X" 	g2="t" 	k="19" />
<hkern g1="X" 	g2="u" 	k="19" />
<hkern g1="X" 	g2="v,w,y" 	k="38" />
<hkern g1="X" 	g2="four" 	k="57" />
<hkern g1="X" 	g2="zero,at,C,G,O,Q,copyright,registered,Oacute,Cacute" 	k="37" />
<hkern g1="X" 	g2="Lslash" 	k="29" />
<hkern g1="X" 	g2="nine" 	k="37" />
<hkern g1="X" 	g2="dollar,S,Sacute" 	k="10" />
<hkern g1="X" 	g2="a,aogonek" 	k="10" />
<hkern g1="X" 	g2="hyphen,less,asciitilde,endash,emdash" 	k="38" />
<hkern g1="X" 	g2="f" 	k="19" />
<hkern g1="X" 	g2="eight" 	k="29" />
<hkern g1="X" 	g2="i,j" 	k="19" />
<hkern g1="X" 	g2="ampersand" 	k="19" />
<hkern g1="X" 	g2="c,d,e,g,o,q,oacute,cacute,eogonek" 	k="29" />
<hkern g1="X" 	g2="six" 	k="47" />
<hkern g1="X" 	g2="question" 	k="10" />
<hkern g1="X" 	g2="W" 	k="10" />
<hkern g1="X" 	g2="V,backslash" 	k="10" />
<hkern g1="X" 	g2="five" 	k="10" />
<hkern g1="X" 	g2="Y" 	k="5" />
<hkern g1="X" 	g2="seven" 	k="10" />
<hkern g1="X" 	g2="one" 	k="19" />
<hkern g1="X" 	g2="yen" 	k="5" />
<hkern g1="Y" 	g2="lslash" 	k="19" />
<hkern g1="Y" 	g2="s,sacute" 	k="57" />
<hkern g1="Y" 	g2="t" 	k="19" />
<hkern g1="Y" 	g2="J" 	k="95" />
<hkern g1="Y" 	g2="u" 	k="30" />
<hkern g1="Y" 	g2="v,w,y" 	k="38" />
<hkern g1="Y" 	g2="four" 	k="95" />
<hkern g1="Y" 	g2="x,guillemotright,guilsinglright" 	k="48" />
<hkern g1="Y" 	g2="zero,at,C,G,O,Q,copyright,registered,Oacute,Cacute" 	k="37" />
<hkern g1="Y" 	g2="z,zacute,zdotaccent" 	k="38" />
<hkern g1="Y" 	g2="Lslash" 	k="29" />
<hkern g1="Y" 	g2="nine" 	k="19" />
<hkern g1="Y" 	g2="dollar,S,Sacute" 	k="29" />
<hkern g1="Y" 	g2="X" 	k="5" />
<hkern g1="Y" 	g2="comma,period,quotesinglbase,quotedblbase,ellipsis" 	k="95" />
<hkern g1="Y" 	g2="three" 	k="10" />
<hkern g1="Y" 	g2="a,aogonek" 	k="67" />
<hkern g1="Y" 	g2="hyphen,less,asciitilde,endash,emdash" 	k="76" />
<hkern g1="Y" 	g2="f" 	k="19" />
<hkern g1="Y" 	g2="eight" 	k="37" />
<hkern g1="Y" 	g2="i,j" 	k="10" />
<hkern g1="Y" 	g2="ampersand" 	k="76" />
<hkern g1="Y" 	g2="slash,A,Aogonek" 	k="105" />
<hkern g1="Y" 	g2="colon,semicolon,m,n,p,r,nacute" 	k="29" />
<hkern g1="Y" 	g2="c,d,e,g,o,q,oacute,cacute,eogonek" 	k="76" />
<hkern g1="Y" 	g2="two" 	k="10" />
<hkern g1="Y" 	g2="six" 	k="76" />
<hkern g1="Y" 	g2="five" 	k="10" />
<hkern g1="Y" 	g2="Y" 	k="-9" />
<hkern g1="Y" 	g2="one" 	k="10" />
<hkern g1="Z,Zacute,Zdotaccent" 	g2="lslash" 	k="19" />
<hkern g1="Z,Zacute,Zdotaccent" 	g2="s,sacute" 	k="19" />
<hkern g1="Z,Zacute,Zdotaccent" 	g2="t" 	k="19" />
<hkern g1="Z,Zacute,Zdotaccent" 	g2="u" 	k="10" />
<hkern g1="Z,Zacute,Zdotaccent" 	g2="v,w,y" 	k="38" />
<hkern g1="Z,Zacute,Zdotaccent" 	g2="four" 	k="20" />
<hkern g1="Z,Zacute,Zdotaccent" 	g2="x,guillemotright,guilsinglright" 	k="19" />
<hkern g1="Z,Zacute,Zdotaccent" 	g2="zero,at,C,G,O,Q,copyright,registered,Oacute,Cacute" 	k="14" />
<hkern g1="Z,Zacute,Zdotaccent" 	g2="z,zacute,zdotaccent" 	k="10" />
<hkern g1="Z,Zacute,Zdotaccent" 	g2="Lslash" 	k="19" />
<hkern g1="Z,Zacute,Zdotaccent" 	g2="nine" 	k="29" />
<hkern g1="Z,Zacute,Zdotaccent" 	g2="comma,period,quotesinglbase,quotedblbase,ellipsis" 	k="10" />
<hkern g1="Z,Zacute,Zdotaccent" 	g2="hyphen,less,asciitilde,endash,emdash" 	k="11" />
<hkern g1="Z,Zacute,Zdotaccent" 	g2="f" 	k="10" />
<hkern g1="Z,Zacute,Zdotaccent" 	g2="eight" 	k="10" />
<hkern g1="Z,Zacute,Zdotaccent" 	g2="i,j" 	k="10" />
<hkern g1="Z,Zacute,Zdotaccent" 	g2="c,d,e,g,o,q,oacute,cacute,eogonek" 	k="5" />
<hkern g1="Z,Zacute,Zdotaccent" 	g2="six" 	k="10" />
<hkern g1="Z,Zacute,Zdotaccent" 	g2="one" 	k="10" />
<hkern g1="c,cacute" 	g2="a,aogonek" 	k="5" />
<hkern g1="c,cacute" 	g2="hyphen,less,asciitilde,endash,emdash" 	k="19" />
<hkern g1="c,cacute" 	g2="c,d,e,g,o,q,oacute,cacute,eogonek" 	k="14" />
<hkern g1="c,cacute" 	g2="question" 	k="19" />
<hkern g1="c,cacute" 	g2="T" 	k="30" />
<hkern g1="c,cacute" 	g2="W" 	k="19" />
<hkern g1="c,cacute" 	g2="V,backslash" 	k="37" />
<hkern g1="c,cacute" 	g2="Y" 	k="48" />
<hkern g1="c,cacute" 	g2="seven" 	k="10" />
<hkern g1="c,cacute" 	g2="one" 	k="10" />
<hkern g1="c,cacute" 	g2="yen" 	k="37" />
<hkern g1="c,cacute" 	g2="parenright" 	k="10" />
<hkern g1="e,eogonek" 	g2="v,w,y" 	k="14" />
<hkern g1="e,eogonek" 	g2="x,guillemotright,guilsinglright" 	k="10" />
<hkern g1="e,eogonek" 	g2="z,zacute,zdotaccent" 	k="10" />
<hkern g1="e,eogonek" 	g2="X" 	k="10" />
<hkern g1="e,eogonek" 	g2="comma,period,quotesinglbase,quotedblbase,ellipsis" 	k="10" />
<hkern g1="e,eogonek" 	g2="three" 	k="10" />
<hkern g1="e,eogonek" 	g2="a,aogonek" 	k="10" />
<hkern g1="e,eogonek" 	g2="hyphen,less,asciitilde,endash,emdash" 	k="10" />
<hkern g1="e,eogonek" 	g2="quotedbl,quotesingle,asterisk,quoteleft,quoteright,quotedblleft,quotedblright,trademark" 	k="19" />
<hkern g1="e,eogonek" 	g2="question" 	k="29" />
<hkern g1="e,eogonek" 	g2="T" 	k="57" />
<hkern g1="e,eogonek" 	g2="W" 	k="38" />
<hkern g1="e,eogonek" 	g2="V,backslash" 	k="48" />
<hkern g1="e,eogonek" 	g2="Y" 	k="67" />
<hkern g1="e,eogonek" 	g2="seven" 	k="10" />
<hkern g1="e,eogonek" 	g2="one" 	k="29" />
<hkern g1="e,eogonek" 	g2="yen" 	k="29" />
<hkern g1="e,eogonek" 	g2="bracketright,braceright" 	k="10" />
<hkern g1="e,eogonek" 	g2="parenright" 	k="19" />
<hkern g1="f" 	g2="lslash" 	k="-9" />
<hkern g1="f" 	g2="J" 	k="19" />
<hkern g1="f" 	g2="zero,at,C,G,O,Q,copyright,registered,Oacute,Cacute" 	k="-9" />
<hkern g1="f" 	g2="z,zacute,zdotaccent" 	k="10" />
<hkern g1="f" 	g2="dollar,S,Sacute" 	k="-28" />
<hkern g1="f" 	g2="X" 	k="-19" />
<hkern g1="f" 	g2="comma,period,quotesinglbase,quotedblbase,ellipsis" 	k="30" />
<hkern g1="f" 	g2="a,aogonek" 	k="24" />
<hkern g1="f" 	g2="hyphen,less,asciitilde,endash,emdash" 	k="11" />
<hkern g1="f" 	g2="quotedbl,quotesingle,asterisk,quoteleft,quoteright,quotedblleft,quotedblright,trademark" 	k="-19" />
<hkern g1="f" 	g2="slash,A,Aogonek" 	k="19" />
<hkern g1="f" 	g2="c,d,e,g,o,q,oacute,cacute,eogonek" 	k="10" />
<hkern g1="f" 	g2="question" 	k="-19" />
<hkern g1="f" 	g2="T" 	k="-28" />
<hkern g1="f" 	g2="W" 	k="-28" />
<hkern g1="f" 	g2="V,backslash" 	k="-28" />
<hkern g1="f" 	g2="Y" 	k="-28" />
<hkern g1="f" 	g2="bracketright,braceright" 	k="-37" />
<hkern g1="f" 	g2="parenright" 	k="-47" />
<hkern g1="f" 	g2="b,h,k" 	k="-9" />
<hkern g1="f" 	g2="exclam,B,D,E,F,H,I,K,L,M,N,P,R,bracketleft,Eogonek,Nacute" 	k="-9" />
<hkern g1="f" 	g2="U" 	k="-19" />
<hkern g1="f" 	g2="l" 	k="-9" />
<hkern g1="k" 	g2="lslash" 	k="24" />
<hkern g1="k" 	g2="s,sacute" 	k="10" />
<hkern g1="k" 	g2="t" 	k="5" />
<hkern g1="k" 	g2="v,w,y" 	k="10" />
<hkern g1="k" 	g2="comma,period,quotesinglbase,quotedblbase,ellipsis" 	k="10" />
<hkern g1="k" 	g2="a,aogonek" 	k="14" />
<hkern g1="k" 	g2="hyphen,less,asciitilde,endash,emdash" 	k="38" />
<hkern g1="k" 	g2="f" 	k="5" />
<hkern g1="k" 	g2="quotedbl,quotesingle,asterisk,quoteleft,quoteright,quotedblleft,quotedblright,trademark" 	k="10" />
<hkern g1="k" 	g2="i,j" 	k="5" />
<hkern g1="k" 	g2="c,d,e,g,o,q,oacute,cacute,eogonek" 	k="37" />
<hkern g1="k" 	g2="six" 	k="19" />
<hkern g1="k" 	g2="question" 	k="37" />
<hkern g1="k" 	g2="T" 	k="29" />
<hkern g1="k" 	g2="W" 	k="29" />
<hkern g1="k" 	g2="V,backslash" 	k="29" />
<hkern g1="k" 	g2="Y" 	k="48" />
<hkern g1="k" 	g2="yen" 	k="29" />
<hkern g1="k" 	g2="l" 	k="5" />
<hkern g1="A,backslash,Aogonek" 	g2="lslash" 	k="37" />
<hkern g1="A,backslash,Aogonek" 	g2="t" 	k="37" />
<hkern g1="A,backslash,Aogonek" 	g2="u" 	k="10" />
<hkern g1="A,backslash,Aogonek" 	g2="v,w,y" 	k="57" />
<hkern g1="A,backslash,Aogonek" 	g2="four" 	k="19" />
<hkern g1="A,backslash,Aogonek" 	g2="zero,at,C,G,O,Q,copyright,registered,Oacute,Cacute" 	k="29" />
<hkern g1="A,backslash,Aogonek" 	g2="Lslash" 	k="10" />
<hkern g1="A,backslash,Aogonek" 	g2="nine" 	k="76" />
<hkern g1="A,backslash,Aogonek" 	g2="comma,period,quotesinglbase,quotedblbase,ellipsis" 	k="-9" />
<hkern g1="A,backslash,Aogonek" 	g2="hyphen,less,asciitilde,endash,emdash" 	k="19" />
<hkern g1="A,backslash,Aogonek" 	g2="f" 	k="19" />
<hkern g1="A,backslash,Aogonek" 	g2="eight" 	k="10" />
<hkern g1="A,backslash,Aogonek" 	g2="quotedbl,quotesingle,asterisk,quoteleft,quoteright,quotedblleft,quotedblright,trademark" 	k="57" />
<hkern g1="A,backslash,Aogonek" 	g2="i,j" 	k="19" />
<hkern g1="A,backslash,Aogonek" 	g2="slash,A,Aogonek" 	k="-9" />
<hkern g1="A,backslash,Aogonek" 	g2="c,d,e,g,o,q,oacute,cacute,eogonek" 	k="10" />
<hkern g1="A,backslash,Aogonek" 	g2="six" 	k="10" />
<hkern g1="A,backslash,Aogonek" 	g2="question" 	k="86" />
<hkern g1="A,backslash,Aogonek" 	g2="T" 	k="105" />
<hkern g1="A,backslash,Aogonek" 	g2="W" 	k="76" />
<hkern g1="A,backslash,Aogonek" 	g2="V,backslash" 	k="95" />
<hkern g1="A,backslash,Aogonek" 	g2="Y" 	k="105" />
<hkern g1="A,backslash,Aogonek" 	g2="one" 	k="66" />
<hkern g1="A,backslash,Aogonek" 	g2="yen" 	k="86" />
<hkern g1="A,backslash,Aogonek" 	g2="U" 	k="29" />
<hkern g1="A,backslash,Aogonek" 	g2="l" 	k="10" />
<hkern g1="l" 	g2="lslash" 	k="19" />
<hkern g1="l" 	g2="t" 	k="29" />
<hkern g1="l" 	g2="u" 	k="14" />
<hkern g1="l" 	g2="v,w,y" 	k="37" />
<hkern g1="l" 	g2="hyphen,less,asciitilde,endash,emdash" 	k="19" />
<hkern g1="l" 	g2="f" 	k="29" />
<hkern g1="l" 	g2="quotedbl,quotesingle,asterisk,quoteleft,quoteright,quotedblleft,quotedblright,trademark" 	k="19" />
<hkern g1="l" 	g2="i,j" 	k="19" />
<hkern g1="l" 	g2="c,d,e,g,o,q,oacute,cacute,eogonek" 	k="19" />
<hkern g1="l" 	g2="question" 	k="29" />
<hkern g1="l" 	g2="T" 	k="10" />
<hkern g1="l" 	g2="W" 	k="10" />
<hkern g1="l" 	g2="V,backslash" 	k="10" />
<hkern g1="l" 	g2="bracketright,braceright" 	k="-9" />
<hkern g1="l" 	g2="l" 	k="10" />
<hkern g1="B" 	g2="J" 	k="10" />
<hkern g1="B" 	g2="v,w,y" 	k="10" />
<hkern g1="B" 	g2="x,guillemotright,guilsinglright" 	k="10" />
<hkern g1="B" 	g2="dollar,S,Sacute" 	k="10" />
<hkern g1="B" 	g2="X" 	k="19" />
<hkern g1="B" 	g2="Z,Zacute,Zdotaccent" 	k="10" />
<hkern g1="B" 	g2="three" 	k="10" />
<hkern g1="B" 	g2="slash,A,Aogonek" 	k="14" />
<hkern g1="B" 	g2="question" 	k="10" />
<hkern g1="B" 	g2="T" 	k="10" />
<hkern g1="B" 	g2="W" 	k="19" />
<hkern g1="B" 	g2="V,backslash" 	k="29" />
<hkern g1="B" 	g2="five" 	k="10" />
<hkern g1="B" 	g2="Y" 	k="33" />
<hkern g1="B" 	g2="seven" 	k="10" />
<hkern g1="B" 	g2="one" 	k="10" />
<hkern g1="B" 	g2="yen" 	k="29" />
<hkern g1="B" 	g2="bracketright,braceright" 	k="10" />
<hkern g1="B" 	g2="parenright" 	k="19" />
<hkern g1="C,Cacute,Euro" 	g2="lslash" 	k="19" />
<hkern g1="C,Cacute,Euro" 	g2="t" 	k="19" />
<hkern g1="C,Cacute,Euro" 	g2="u" 	k="10" />
<hkern g1="C,Cacute,Euro" 	g2="v,w,y" 	k="19" />
<hkern g1="C,Cacute,Euro" 	g2="four" 	k="30" />
<hkern g1="C,Cacute,Euro" 	g2="zero,at,C,G,O,Q,copyright,registered,Oacute,Cacute" 	k="19" />
<hkern g1="C,Cacute,Euro" 	g2="Lslash" 	k="19" />
<hkern g1="C,Cacute,Euro" 	g2="nine" 	k="10" />
<hkern g1="C,Cacute,Euro" 	g2="dollar,S,Sacute" 	k="10" />
<hkern g1="C,Cacute,Euro" 	g2="a,aogonek" 	k="10" />
<hkern g1="C,Cacute,Euro" 	g2="hyphen,less,asciitilde,endash,emdash" 	k="20" />
<hkern g1="C,Cacute,Euro" 	g2="f" 	k="10" />
<hkern g1="C,Cacute,Euro" 	g2="eight" 	k="19" />
<hkern g1="C,Cacute,Euro" 	g2="i,j" 	k="10" />
<hkern g1="C,Cacute,Euro" 	g2="c,d,e,g,o,q,oacute,cacute,eogonek" 	k="19" />
<hkern g1="C,Cacute,Euro" 	g2="six" 	k="19" />
<hkern g1="C,Cacute,Euro" 	g2="parenright" 	k="10" />
<hkern g1="a,h,m,n,aogonek,nacute" 	g2="J" 	k="10" />
<hkern g1="a,h,m,n,aogonek,nacute" 	g2="v,w,y" 	k="19" />
<hkern g1="a,h,m,n,aogonek,nacute" 	g2="nine" 	k="10" />
<hkern g1="a,h,m,n,aogonek,nacute" 	g2="quotedbl,quotesingle,asterisk,quoteleft,quoteright,quotedblleft,quotedblright,trademark" 	k="30" />
<hkern g1="a,h,m,n,aogonek,nacute" 	g2="slash,A,Aogonek" 	k="10" />
<hkern g1="a,h,m,n,aogonek,nacute" 	g2="question" 	k="38" />
<hkern g1="a,h,m,n,aogonek,nacute" 	g2="T" 	k="48" />
<hkern g1="a,h,m,n,aogonek,nacute" 	g2="W" 	k="38" />
<hkern g1="a,h,m,n,aogonek,nacute" 	g2="V,backslash" 	k="57" />
<hkern g1="a,h,m,n,aogonek,nacute" 	g2="Y" 	k="48" />
<hkern g1="a,h,m,n,aogonek,nacute" 	g2="one" 	k="37" />
<hkern g1="a,h,m,n,aogonek,nacute" 	g2="yen" 	k="30" />
<hkern g1="b,o,p,oacute" 	g2="t" 	k="5" />
<hkern g1="b,o,p,oacute" 	g2="J" 	k="10" />
<hkern g1="b,o,p,oacute" 	g2="v,w,y" 	k="19" />
<hkern g1="b,o,p,oacute" 	g2="x,guillemotright,guilsinglright" 	k="24" />
<hkern g1="b,o,p,oacute" 	g2="z,zacute,zdotaccent" 	k="10" />
<hkern g1="b,o,p,oacute" 	g2="nine" 	k="10" />
<hkern g1="b,o,p,oacute" 	g2="dollar,S,Sacute" 	k="10" />
<hkern g1="b,o,p,oacute" 	g2="X" 	k="29" />
<hkern g1="b,o,p,oacute" 	g2="Z,Zacute,Zdotaccent" 	k="10" />
<hkern g1="b,o,p,oacute" 	g2="comma,period,quotesinglbase,quotedblbase,ellipsis" 	k="10" />
<hkern g1="b,o,p,oacute" 	g2="three" 	k="19" />
<hkern g1="b,o,p,oacute" 	g2="f" 	k="5" />
<hkern g1="b,o,p,oacute" 	g2="quotedbl,quotesingle,asterisk,quoteleft,quoteright,quotedblleft,quotedblright,trademark" 	k="38" />
<hkern g1="b,o,p,oacute" 	g2="i,j" 	k="5" />
<hkern g1="b,o,p,oacute" 	g2="slash,A,Aogonek" 	k="10" />
<hkern g1="b,o,p,oacute" 	g2="question" 	k="57" />
<hkern g1="b,o,p,oacute" 	g2="T" 	k="57" />
<hkern g1="b,o,p,oacute" 	g2="W" 	k="38" />
<hkern g1="b,o,p,oacute" 	g2="V,backslash" 	k="67" />
<hkern g1="b,o,p,oacute" 	g2="five" 	k="10" />
<hkern g1="b,o,p,oacute" 	g2="Y" 	k="76" />
<hkern g1="b,o,p,oacute" 	g2="seven" 	k="38" />
<hkern g1="b,o,p,oacute" 	g2="one" 	k="37" />
<hkern g1="b,o,p,oacute" 	g2="yen" 	k="38" />
<hkern g1="b,o,p,oacute" 	g2="bracketright,braceright" 	k="19" />
<hkern g1="b,o,p,oacute" 	g2="parenright" 	k="29" />
<hkern g1="E,Eogonek" 	g2="lslash" 	k="19" />
<hkern g1="E,Eogonek" 	g2="t" 	k="10" />
<hkern g1="E,Eogonek" 	g2="v,w,y" 	k="19" />
<hkern g1="E,Eogonek" 	g2="four" 	k="10" />
<hkern g1="E,Eogonek" 	g2="zero,at,C,G,O,Q,copyright,registered,Oacute,Cacute" 	k="14" />
<hkern g1="E,Eogonek" 	g2="Lslash" 	k="19" />
<hkern g1="E,Eogonek" 	g2="nine" 	k="19" />
<hkern g1="E,Eogonek" 	g2="dollar,S,Sacute" 	k="5" />
<hkern g1="E,Eogonek" 	g2="hyphen,less,asciitilde,endash,emdash" 	k="10" />
<hkern g1="E,Eogonek" 	g2="f" 	k="10" />
<hkern g1="E,Eogonek" 	g2="eight" 	k="10" />
<hkern g1="E,Eogonek" 	g2="i,j" 	k="10" />
<hkern g1="E,Eogonek" 	g2="six" 	k="10" />
<hkern g1="F" 	g2="lslash" 	k="10" />
<hkern g1="F" 	g2="s,sacute" 	k="19" />
<hkern g1="F" 	g2="t" 	k="10" />
<hkern g1="F" 	g2="J" 	k="67" />
<hkern g1="F" 	g2="u" 	k="19" />
<hkern g1="F" 	g2="v,w,y" 	k="29" />
<hkern g1="F" 	g2="four" 	k="38" />
<hkern g1="F" 	g2="x,guillemotright,guilsinglright" 	k="29" />
<hkern g1="F" 	g2="zero,at,C,G,O,Q,copyright,registered,Oacute,Cacute" 	k="19" />
<hkern g1="F" 	g2="z,zacute,zdotaccent" 	k="19" />
<hkern g1="F" 	g2="Lslash" 	k="29" />
<hkern g1="F" 	g2="nine" 	k="19" />
<hkern g1="F" 	g2="dollar,S,Sacute" 	k="10" />
<hkern g1="F" 	g2="comma,period,quotesinglbase,quotedblbase,ellipsis" 	k="57" />
<hkern g1="F" 	g2="three" 	k="19" />
<hkern g1="F" 	g2="a,aogonek" 	k="48" />
<hkern g1="F" 	g2="hyphen,less,asciitilde,endash,emdash" 	k="29" />
<hkern g1="F" 	g2="f" 	k="10" />
<hkern g1="F" 	g2="eight" 	k="19" />
<hkern g1="F" 	g2="i,j" 	k="10" />
<hkern g1="F" 	g2="ampersand" 	k="48" />
<hkern g1="F" 	g2="slash,A,Aogonek" 	k="86" />
<hkern g1="F" 	g2="colon,semicolon,m,n,p,r,nacute" 	k="19" />
<hkern g1="F" 	g2="c,d,e,g,o,q,oacute,cacute,eogonek" 	k="38" />
<hkern g1="F" 	g2="two" 	k="10" />
<hkern g1="F" 	g2="six" 	k="37" />
<hkern g1="F" 	g2="five" 	k="10" />
<hkern g1="g,q" 	g2="t" 	k="5" />
<hkern g1="g,q" 	g2="v,w,y" 	k="10" />
<hkern g1="g,q" 	g2="f" 	k="5" />
<hkern g1="g,q" 	g2="quotedbl,quotesingle,asterisk,quoteleft,quoteright,quotedblleft,quotedblright,trademark" 	k="10" />
<hkern g1="g,q" 	g2="question" 	k="29" />
<hkern g1="g,q" 	g2="T" 	k="30" />
<hkern g1="g,q" 	g2="W" 	k="20" />
<hkern g1="g,q" 	g2="V,backslash" 	k="38" />
<hkern g1="g,q" 	g2="Y" 	k="48" />
<hkern g1="g,q" 	g2="one" 	k="29" />
<hkern g1="g,q" 	g2="yen" 	k="20" />
<hkern g1="G" 	g2="x,guillemotright,guilsinglright" 	k="5" />
<hkern g1="G" 	g2="nine" 	k="19" />
<hkern g1="G" 	g2="quotedbl,quotesingle,asterisk,quoteleft,quoteright,quotedblleft,quotedblright,trademark" 	k="19" />
<hkern g1="G" 	g2="question" 	k="19" />
<hkern g1="G" 	g2="seven" 	k="29" />
<hkern g1="G" 	g2="one" 	k="37" />
<hkern g1="G" 	g2="bracketright,braceright" 	k="19" />
<hkern g1="G" 	g2="parenright" 	k="19" />
<hkern g1="r" 	g2="J" 	k="19" />
<hkern g1="r" 	g2="X" 	k="19" />
<hkern g1="r" 	g2="comma,period,quotesinglbase,quotedblbase,ellipsis" 	k="67" />
<hkern g1="r" 	g2="a,aogonek" 	k="20" />
<hkern g1="r" 	g2="hyphen,less,asciitilde,endash,emdash" 	k="10" />
<hkern g1="r" 	g2="slash,A,Aogonek" 	k="38" />
<hkern g1="r" 	g2="c,d,e,g,o,q,oacute,cacute,eogonek" 	k="5" />
<hkern g1="r" 	g2="question" 	k="10" />
<hkern g1="r" 	g2="W" 	k="10" />
<hkern g1="r" 	g2="V,backslash" 	k="19" />
<hkern g1="r" 	g2="Y" 	k="19" />
<hkern g1="r" 	g2="bracketright,braceright" 	k="19" />
<hkern g1="r" 	g2="parenright" 	k="19" />
<hkern g1="s,sacute" 	g2="s,sacute" 	k="10" />
<hkern g1="s,sacute" 	g2="t" 	k="5" />
<hkern g1="s,sacute" 	g2="v,w,y" 	k="10" />
<hkern g1="s,sacute" 	g2="x,guillemotright,guilsinglright" 	k="10" />
<hkern g1="s,sacute" 	g2="X" 	k="10" />
<hkern g1="s,sacute" 	g2="f" 	k="5" />
<hkern g1="s,sacute" 	g2="quotedbl,quotesingle,asterisk,quoteleft,quoteright,quotedblleft,quotedblright,trademark" 	k="10" />
<hkern g1="s,sacute" 	g2="i,j" 	k="5" />
<hkern g1="s,sacute" 	g2="question" 	k="29" />
<hkern g1="s,sacute" 	g2="T" 	k="30" />
<hkern g1="s,sacute" 	g2="W" 	k="29" />
<hkern g1="s,sacute" 	g2="V,backslash" 	k="38" />
<hkern g1="s,sacute" 	g2="Y" 	k="57" />
<hkern g1="s,sacute" 	g2="seven" 	k="10" />
<hkern g1="s,sacute" 	g2="one" 	k="10" />
<hkern g1="s,sacute" 	g2="yen" 	k="19" />
<hkern g1="s,sacute" 	g2="bracketright,braceright" 	k="10" />
<hkern g1="s,sacute" 	g2="parenright" 	k="10" />
<hkern g1="t" 	g2="s,sacute" 	k="5" />
<hkern g1="t" 	g2="t" 	k="5" />
<hkern g1="t" 	g2="comma,period,quotesinglbase,quotedblbase,ellipsis" 	k="10" />
<hkern g1="t" 	g2="a,aogonek" 	k="14" />
<hkern g1="t" 	g2="hyphen,less,asciitilde,endash,emdash" 	k="10" />
<hkern g1="t" 	g2="f" 	k="5" />
<hkern g1="t" 	g2="i,j" 	k="5" />
<hkern g1="t" 	g2="c,d,e,g,o,q,oacute,cacute,eogonek" 	k="10" />
<hkern g1="t" 	g2="question" 	k="29" />
<hkern g1="t" 	g2="T" 	k="10" />
<hkern g1="t" 	g2="W" 	k="19" />
<hkern g1="t" 	g2="V,backslash" 	k="29" />
<hkern g1="t" 	g2="Y" 	k="37" />
<hkern g1="t" 	g2="one" 	k="10" />
<hkern g1="J" 	g2="J" 	k="19" />
<hkern g1="J" 	g2="comma,period,quotesinglbase,quotedblbase,ellipsis" 	k="10" />
<hkern g1="J" 	g2="slash,A,Aogonek" 	k="19" />
<hkern g1="colon,semicolon,u" 	g2="question" 	k="19" />
<hkern g1="colon,semicolon,u" 	g2="T" 	k="20" />
<hkern g1="colon,semicolon,u" 	g2="W" 	k="19" />
<hkern g1="colon,semicolon,u" 	g2="V,backslash" 	k="30" />
<hkern g1="colon,semicolon,u" 	g2="Y" 	k="29" />
<hkern g1="colon,semicolon,u" 	g2="one" 	k="10" />
<hkern g1="colon,semicolon,u" 	g2="yen" 	k="19" />
<hkern g1="K" 	g2="lslash" 	k="37" />
<hkern g1="K" 	g2="t" 	k="37" />
<hkern g1="K" 	g2="u" 	k="19" />
<hkern g1="K" 	g2="v,w,y" 	k="38" />
<hkern g1="K" 	g2="four" 	k="38" />
<hkern g1="K" 	g2="zero,at,C,G,O,Q,copyright,registered,Oacute,Cacute" 	k="44" />
<hkern g1="K" 	g2="Lslash" 	k="29" />
<hkern g1="K" 	g2="nine" 	k="37" />
<hkern g1="K" 	g2="dollar,S,Sacute" 	k="10" />
<hkern g1="K" 	g2="a,aogonek" 	k="10" />
<hkern g1="K" 	g2="hyphen,less,asciitilde,endash,emdash" 	k="38" />
<hkern g1="K" 	g2="f" 	k="19" />
<hkern g1="K" 	g2="eight" 	k="19" />
<hkern g1="K" 	g2="i,j" 	k="19" />
<hkern g1="K" 	g2="ampersand" 	k="19" />
<hkern g1="K" 	g2="c,d,e,g,o,q,oacute,cacute,eogonek" 	k="19" />
<hkern g1="K" 	g2="six" 	k="29" />
<hkern g1="K" 	g2="one" 	k="10" />
<hkern g1="K" 	g2="l" 	k="5" />
<hkern g1="v,w,y" 	g2="s,sacute" 	k="14" />
<hkern g1="v,w,y" 	g2="J" 	k="38" />
<hkern g1="v,w,y" 	g2="v,w,y" 	k="-9" />
<hkern g1="v,w,y" 	g2="z,zacute,zdotaccent" 	k="5" />
<hkern g1="v,w,y" 	g2="X" 	k="38" />
<hkern g1="v,w,y" 	g2="Z,Zacute,Zdotaccent" 	k="10" />
<hkern g1="v,w,y" 	g2="comma,period,quotesinglbase,quotedblbase,ellipsis" 	k="76" />
<hkern g1="v,w,y" 	g2="three" 	k="19" />
<hkern g1="v,w,y" 	g2="a,aogonek" 	k="10" />
<hkern g1="v,w,y" 	g2="hyphen,less,asciitilde,endash,emdash" 	k="10" />
<hkern g1="v,w,y" 	g2="eight" 	k="10" />
<hkern g1="v,w,y" 	g2="quotedbl,quotesingle,asterisk,quoteleft,quoteright,quotedblleft,quotedblright,trademark" 	k="-9" />
<hkern g1="v,w,y" 	g2="slash,A,Aogonek" 	k="57" />
<hkern g1="v,w,y" 	g2="c,d,e,g,o,q,oacute,cacute,eogonek" 	k="10" />
<hkern g1="v,w,y" 	g2="two" 	k="10" />
<hkern g1="v,w,y" 	g2="question" 	k="10" />
<hkern g1="v,w,y" 	g2="T" 	k="38" />
<hkern g1="v,w,y" 	g2="W" 	k="10" />
<hkern g1="v,w,y" 	g2="V,backslash" 	k="19" />
<hkern g1="v,w,y" 	g2="Y" 	k="38" />
<hkern g1="v,w,y" 	g2="yen" 	k="19" />
<hkern g1="v,w,y" 	g2="bracketright,braceright" 	k="19" />
<hkern g1="v,w,y" 	g2="parenright" 	k="19" />
<hkern g1="L,Lslash" 	g2="t" 	k="10" />
<hkern g1="L,Lslash" 	g2="v,w,y" 	k="38" />
<hkern g1="L,Lslash" 	g2="four" 	k="20" />
<hkern g1="L,Lslash" 	g2="zero,at,C,G,O,Q,copyright,registered,Oacute,Cacute" 	k="14" />
<hkern g1="L,Lslash" 	g2="nine" 	k="48" />
<hkern g1="L,Lslash" 	g2="hyphen,less,asciitilde,endash,emdash" 	k="11" />
<hkern g1="L,Lslash" 	g2="f" 	k="10" />
<hkern g1="L,Lslash" 	g2="eight" 	k="10" />
<hkern g1="L,Lslash" 	g2="quotedbl,quotesingle,asterisk,quoteleft,quoteright,quotedblleft,quotedblright,trademark" 	k="38" />
<hkern g1="L,Lslash" 	g2="i,j" 	k="19" />
<hkern g1="L,Lslash" 	g2="six" 	k="10" />
<hkern g1="L,Lslash" 	g2="question" 	k="48" />
<hkern g1="L,Lslash" 	g2="T" 	k="86" />
<hkern g1="L,Lslash" 	g2="W" 	k="67" />
<hkern g1="L,Lslash" 	g2="V,backslash" 	k="95" />
<hkern g1="L,Lslash" 	g2="Y" 	k="114" />
<hkern g1="L,Lslash" 	g2="seven" 	k="48" />
<hkern g1="L,Lslash" 	g2="one" 	k="67" />
<hkern g1="L,Lslash" 	g2="U" 	k="5" />
<hkern g1="x,guillemotleft,guilsinglleft" 	g2="lslash" 	k="10" />
<hkern g1="x,guillemotleft,guilsinglleft" 	g2="x,guillemotright,guilsinglright" 	k="-5" />
<hkern g1="x,guillemotleft,guilsinglleft" 	g2="a,aogonek" 	k="5" />
<hkern g1="x,guillemotleft,guilsinglleft" 	g2="hyphen,less,asciitilde,endash,emdash" 	k="20" />
<hkern g1="x,guillemotleft,guilsinglleft" 	g2="c,d,e,g,o,q,oacute,cacute,eogonek" 	k="24" />
<hkern g1="x,guillemotleft,guilsinglleft" 	g2="six" 	k="10" />
<hkern g1="x,guillemotleft,guilsinglleft" 	g2="question" 	k="10" />
<hkern g1="x,guillemotleft,guilsinglleft" 	g2="T" 	k="38" />
<hkern g1="x,guillemotleft,guilsinglleft" 	g2="W" 	k="19" />
<hkern g1="x,guillemotleft,guilsinglleft" 	g2="V,backslash" 	k="19" />
<hkern g1="x,guillemotleft,guilsinglleft" 	g2="Y" 	k="48" />
<hkern g1="x,guillemotleft,guilsinglleft" 	g2="one" 	k="10" />
<hkern g1="x,guillemotleft,guilsinglleft" 	g2="yen" 	k="19" />
<hkern g1="zero,at,D,O,Q,copyright,registered,Oacute" 	g2="J" 	k="29" />
<hkern g1="zero,at,D,O,Q,copyright,registered,Oacute" 	g2="dollar,S,Sacute" 	k="5" />
<hkern g1="zero,at,D,O,Q,copyright,registered,Oacute" 	g2="X" 	k="37" />
<hkern g1="zero,at,D,O,Q,copyright,registered,Oacute" 	g2="Z,Zacute,Zdotaccent" 	k="14" />
<hkern g1="zero,at,D,O,Q,copyright,registered,Oacute" 	g2="comma,period,quotesinglbase,quotedblbase,ellipsis" 	k="29" />
<hkern g1="zero,at,D,O,Q,copyright,registered,Oacute" 	g2="three" 	k="19" />
<hkern g1="zero,at,D,O,Q,copyright,registered,Oacute" 	g2="quotedbl,quotesingle,asterisk,quoteleft,quoteright,quotedblleft,quotedblright,trademark" 	k="10" />
<hkern g1="zero,at,D,O,Q,copyright,registered,Oacute" 	g2="slash,A,Aogonek" 	k="29" />
<hkern g1="zero,at,D,O,Q,copyright,registered,Oacute" 	g2="two" 	k="14" />
<hkern g1="zero,at,D,O,Q,copyright,registered,Oacute" 	g2="T" 	k="19" />
<hkern g1="zero,at,D,O,Q,copyright,registered,Oacute" 	g2="W" 	k="24" />
<hkern g1="zero,at,D,O,Q,copyright,registered,Oacute" 	g2="V,backslash" 	k="29" />
<hkern g1="zero,at,D,O,Q,copyright,registered,Oacute" 	g2="five" 	k="10" />
<hkern g1="zero,at,D,O,Q,copyright,registered,Oacute" 	g2="Y" 	k="37" />
<hkern g1="zero,at,D,O,Q,copyright,registered,Oacute" 	g2="seven" 	k="14" />
<hkern g1="zero,at,D,O,Q,copyright,registered,Oacute" 	g2="one" 	k="5" />
<hkern g1="zero,at,D,O,Q,copyright,registered,Oacute" 	g2="yen" 	k="33" />
<hkern g1="zero,at,D,O,Q,copyright,registered,Oacute" 	g2="bracketright,braceright" 	k="29" />
<hkern g1="zero,at,D,O,Q,copyright,registered,Oacute" 	g2="parenright" 	k="37" />
<hkern g1="z,zacute,zdotaccent" 	g2="s,sacute" 	k="10" />
<hkern g1="z,zacute,zdotaccent" 	g2="dollar,S,Sacute" 	k="10" />
<hkern g1="z,zacute,zdotaccent" 	g2="X" 	k="19" />
<hkern g1="z,zacute,zdotaccent" 	g2="Z,Zacute,Zdotaccent" 	k="10" />
<hkern g1="z,zacute,zdotaccent" 	g2="comma,period,quotesinglbase,quotedblbase,ellipsis" 	k="19" />
<hkern g1="z,zacute,zdotaccent" 	g2="a,aogonek" 	k="5" />
<hkern g1="z,zacute,zdotaccent" 	g2="hyphen,less,asciitilde,endash,emdash" 	k="19" />
<hkern g1="z,zacute,zdotaccent" 	g2="c,d,e,g,o,q,oacute,cacute,eogonek" 	k="10" />
<hkern g1="z,zacute,zdotaccent" 	g2="question" 	k="19" />
<hkern g1="z,zacute,zdotaccent" 	g2="T" 	k="19" />
<hkern g1="z,zacute,zdotaccent" 	g2="W" 	k="19" />
<hkern g1="z,zacute,zdotaccent" 	g2="V,backslash" 	k="19" />
<hkern g1="z,zacute,zdotaccent" 	g2="Y" 	k="37" />
<hkern g1="z,zacute,zdotaccent" 	g2="bracketright,braceright" 	k="19" />
<hkern g1="z,zacute,zdotaccent" 	g2="parenright" 	k="19" />
<hkern g1="P" 	g2="t" 	k="-9" />
<hkern g1="P" 	g2="J" 	k="67" />
<hkern g1="P" 	g2="four" 	k="11" />
<hkern g1="P" 	g2="Lslash" 	k="19" />
<hkern g1="P" 	g2="dollar,S,Sacute" 	k="10" />
<hkern g1="P" 	g2="X" 	k="29" />
<hkern g1="P" 	g2="comma,period,quotesinglbase,quotedblbase,ellipsis" 	k="76" />
<hkern g1="P" 	g2="three" 	k="29" />
<hkern g1="P" 	g2="a,aogonek" 	k="10" />
<hkern g1="P" 	g2="hyphen,less,asciitilde,endash,emdash" 	k="20" />
<hkern g1="P" 	g2="f" 	k="-9" />
<hkern g1="P" 	g2="i,j" 	k="-9" />
<hkern g1="P" 	g2="ampersand" 	k="30" />
<hkern g1="P" 	g2="slash,A,Aogonek" 	k="76" />
<hkern g1="P" 	g2="two" 	k="10" />
<hkern g1="P" 	g2="six" 	k="10" />
<hkern g1="P" 	g2="W" 	k="19" />
<hkern g1="P" 	g2="V,backslash" 	k="19" />
<hkern g1="P" 	g2="five" 	k="10" />
<hkern g1="P" 	g2="Y" 	k="19" />
<hkern g1="P" 	g2="yen" 	k="19" />
<hkern g1="P" 	g2="bracketright,braceright" 	k="19" />
<hkern g1="P" 	g2="parenright" 	k="29" />
<hkern g1="R" 	g2="lslash" 	k="19" />
<hkern g1="R" 	g2="t" 	k="10" />
<hkern g1="R" 	g2="v,w,y" 	k="10" />
<hkern g1="R" 	g2="four" 	k="10" />
<hkern g1="R" 	g2="zero,at,C,G,O,Q,copyright,registered,Oacute,Cacute" 	k="14" />
<hkern g1="R" 	g2="Lslash" 	k="19" />
<hkern g1="R" 	g2="nine" 	k="10" />
<hkern g1="R" 	g2="hyphen,less,asciitilde,endash,emdash" 	k="19" />
<hkern g1="R" 	g2="f" 	k="10" />
<hkern g1="R" 	g2="eight" 	k="10" />
<hkern g1="R" 	g2="quotedbl,quotesingle,asterisk,quoteleft,quoteright,quotedblleft,quotedblright,trademark" 	k="10" />
<hkern g1="R" 	g2="i,j" 	k="10" />
<hkern g1="R" 	g2="ampersand" 	k="10" />
<hkern g1="R" 	g2="c,d,e,g,o,q,oacute,cacute,eogonek" 	k="19" />
<hkern g1="R" 	g2="six" 	k="10" />
<hkern g1="R" 	g2="question" 	k="19" />
<hkern g1="R" 	g2="T" 	k="19" />
<hkern g1="R" 	g2="W" 	k="37" />
<hkern g1="R" 	g2="V,backslash" 	k="37" />
<hkern g1="R" 	g2="Y" 	k="37" />
<hkern g1="R" 	g2="seven" 	k="10" />
<hkern g1="R" 	g2="one" 	k="19" />
<hkern g1="R" 	g2="parenright" 	k="10" />
<hkern g1="R" 	g2="U" 	k="19" />
<hkern g1="dollar,S,Sacute" 	g2="lslash" 	k="5" />
<hkern g1="dollar,S,Sacute" 	g2="v,w,y" 	k="19" />
<hkern g1="dollar,S,Sacute" 	g2="x,guillemotright,guilsinglright" 	k="10" />
<hkern g1="dollar,S,Sacute" 	g2="nine" 	k="19" />
<hkern g1="dollar,S,Sacute" 	g2="dollar,S,Sacute" 	k="10" />
<hkern g1="dollar,S,Sacute" 	g2="X" 	k="19" />
<hkern g1="dollar,S,Sacute" 	g2="three" 	k="10" />
<hkern g1="dollar,S,Sacute" 	g2="quotedbl,quotesingle,asterisk,quoteleft,quoteright,quotedblleft,quotedblright,trademark" 	k="10" />
<hkern g1="dollar,S,Sacute" 	g2="slash,A,Aogonek" 	k="10" />
<hkern g1="dollar,S,Sacute" 	g2="question" 	k="19" />
<hkern g1="dollar,S,Sacute" 	g2="T" 	k="19" />
<hkern g1="dollar,S,Sacute" 	g2="W" 	k="29" />
<hkern g1="dollar,S,Sacute" 	g2="V,backslash" 	k="29" />
<hkern g1="dollar,S,Sacute" 	g2="Y" 	k="19" />
<hkern g1="dollar,S,Sacute" 	g2="seven" 	k="10" />
<hkern g1="dollar,S,Sacute" 	g2="one" 	k="10" />
<hkern g1="dollar,S,Sacute" 	g2="yen" 	k="19" />
<hkern g1="dollar,S,Sacute" 	g2="bracketright,braceright" 	k="19" />
<hkern g1="dollar,S,Sacute" 	g2="parenright" 	k="19" />
<hkern g1="three,eight" 	g2="T" 	k="19" />
<hkern g1="three,eight" 	g2="v,w,y" 	k="10" />
<hkern g1="three,eight" 	g2="Y" 	k="37" />
<hkern g1="three,eight" 	g2="comma,period,quotesinglbase,quotedblbase,ellipsis" 	k="10" />
<hkern g1="three,eight" 	g2="V,backslash" 	k="37" />
<hkern g1="three,eight" 	g2="x,guillemotright,guilsinglright" 	k="10" />
<hkern g1="three,eight" 	g2="question" 	k="19" />
<hkern g1="three,eight" 	g2="X" 	k="29" />
<hkern g1="three,eight" 	g2="one" 	k="10" />
<hkern g1="three,eight" 	g2="parenright" 	k="19" />
<hkern g1="three,eight" 	g2="three" 	k="19" />
<hkern g1="three,eight" 	g2="bracketright,braceright" 	k="10" />
<hkern g1="three,eight" 	g2="yen" 	k="37" />
<hkern g1="three,eight" 	g2="quotedbl,quotesingle,asterisk,quoteleft,quoteright,quotedblleft,quotedblright,trademark" 	k="10" />
<hkern g1="three,eight" 	g2="J" 	k="10" />
<hkern g1="three,eight" 	g2="dollar,S,Sacute" 	k="10" />
<hkern g1="three,eight" 	g2="five" 	k="10" />
<hkern g1="three,eight" 	g2="slash,A,Aogonek" 	k="19" />
<hkern g1="three,eight" 	g2="nine" 	k="10" />
<hkern g1="three,eight" 	g2="seven" 	k="19" />
<hkern g1="three,eight" 	g2="sterling" 	k="10" />
<hkern g1="three,eight" 	g2="Z,Zacute,Zdotaccent" 	k="10" />
<hkern g1="three,eight" 	g2="W" 	k="37" />
<hkern g1="yen" 	g2="i,j" 	k="10" />
<hkern g1="yen" 	g2="v,w,y" 	k="19" />
<hkern g1="yen" 	g2="comma,period,quotesinglbase,quotedblbase,ellipsis" 	k="48" />
<hkern g1="yen" 	g2="s,sacute" 	k="29" />
<hkern g1="yen" 	g2="x,guillemotright,guilsinglright" 	k="29" />
<hkern g1="yen" 	g2="hyphen,less,asciitilde,endash,emdash" 	k="38" />
<hkern g1="yen" 	g2="X" 	k="5" />
<hkern g1="yen" 	g2="one" 	k="10" />
<hkern g1="yen" 	g2="three" 	k="10" />
<hkern g1="yen" 	g2="J" 	k="67" />
<hkern g1="yen" 	g2="u" 	k="20" />
<hkern g1="yen" 	g2="four" 	k="76" />
<hkern g1="yen" 	g2="zero,at,C,G,O,Q,copyright,registered,Oacute,Cacute" 	k="33" />
<hkern g1="yen" 	g2="dollar,S,Sacute" 	k="29" />
<hkern g1="yen" 	g2="five" 	k="10" />
<hkern g1="yen" 	g2="a,aogonek" 	k="29" />
<hkern g1="yen" 	g2="eight" 	k="37" />
<hkern g1="yen" 	g2="ampersand" 	k="48" />
<hkern g1="yen" 	g2="slash,A,Aogonek" 	k="86" />
<hkern g1="yen" 	g2="colon,semicolon,m,n,p,r,nacute" 	k="19" />
<hkern g1="yen" 	g2="c,d,e,g,o,q,oacute,cacute,eogonek" 	k="38" />
<hkern g1="yen" 	g2="two" 	k="10" />
<hkern g1="yen" 	g2="six" 	k="57" />
<hkern g1="yen" 	g2="nine" 	k="19" />
<hkern g1="bracketleft,braceleft" 	g2="nine" 	k="10" />
<hkern g1="bracketleft,braceleft" 	g2="zero,at,C,G,O,Q,copyright,registered,Oacute,Cacute" 	k="29" />
<hkern g1="bracketleft,braceleft" 	g2="dollar,S,Sacute" 	k="10" />
<hkern g1="bracketleft,braceleft" 	g2="u" 	k="10" />
<hkern g1="bracketleft,braceleft" 	g2="four" 	k="29" />
<hkern g1="bracketleft,braceleft" 	g2="six" 	k="10" />
<hkern g1="bracketleft,braceleft" 	g2="ampersand" 	k="10" />
<hkern g1="bracketleft,braceleft" 	g2="one" 	k="10" />
<hkern g1="bracketleft,braceleft" 	g2="v,w,y" 	k="19" />
<hkern g1="bracketleft,braceleft" 	g2="hyphen,less,asciitilde,endash,emdash" 	k="19" />
<hkern g1="bracketleft,braceleft" 	g2="c,d,e,g,o,q,oacute,cacute,eogonek" 	k="19" />
<hkern g1="bracketleft,braceleft" 	g2="eight" 	k="10" />
<hkern g1="bracketleft,braceleft" 	g2="comma,period,quotesinglbase,quotedblbase,ellipsis" 	k="10" />
<hkern g1="comma,period,quotesinglbase,quotedblbase,ellipsis" 	g2="nine" 	k="67" />
<hkern g1="comma,period,quotesinglbase,quotedblbase,ellipsis" 	g2="zero,at,C,G,O,Q,copyright,registered,Oacute,Cacute" 	k="29" />
<hkern g1="comma,period,quotesinglbase,quotedblbase,ellipsis" 	g2="four" 	k="11" />
<hkern g1="comma,period,quotesinglbase,quotedblbase,ellipsis" 	g2="six" 	k="10" />
<hkern g1="comma,period,quotesinglbase,quotedblbase,ellipsis" 	g2="one" 	k="86" />
<hkern g1="comma,period,quotesinglbase,quotedblbase,ellipsis" 	g2="v,w,y" 	k="76" />
<hkern g1="comma,period,quotesinglbase,quotedblbase,ellipsis" 	g2="hyphen,less,asciitilde,endash,emdash" 	k="20" />
<hkern g1="comma,period,quotesinglbase,quotedblbase,ellipsis" 	g2="c,d,e,g,o,q,oacute,cacute,eogonek" 	k="19" />
<hkern g1="comma,period,quotesinglbase,quotedblbase,ellipsis" 	g2="eight" 	k="10" />
<hkern g1="comma,period,quotesinglbase,quotedblbase,ellipsis" 	g2="lslash" 	k="29" />
<hkern g1="comma,period,quotesinglbase,quotedblbase,ellipsis" 	g2="T" 	k="86" />
<hkern g1="comma,period,quotesinglbase,quotedblbase,ellipsis" 	g2="i,j" 	k="29" />
<hkern g1="comma,period,quotesinglbase,quotedblbase,ellipsis" 	g2="Y" 	k="95" />
<hkern g1="comma,period,quotesinglbase,quotedblbase,ellipsis" 	g2="f" 	k="29" />
<hkern g1="comma,period,quotesinglbase,quotedblbase,ellipsis" 	g2="slash,A,Aogonek" 	k="-9" />
<hkern g1="comma,period,quotesinglbase,quotedblbase,ellipsis" 	g2="V,backslash" 	k="86" />
<hkern g1="comma,period,quotesinglbase,quotedblbase,ellipsis" 	g2="question" 	k="76" />
<hkern g1="comma,period,quotesinglbase,quotedblbase,ellipsis" 	g2="seven" 	k="48" />
<hkern g1="comma,period,quotesinglbase,quotedblbase,ellipsis" 	g2="z,zacute,zdotaccent" 	k="10" />
<hkern g1="comma,period,quotesinglbase,quotedblbase,ellipsis" 	g2="U" 	k="19" />
<hkern g1="comma,period,quotesinglbase,quotedblbase,ellipsis" 	g2="bracketright,braceright" 	k="10" />
<hkern g1="comma,period,quotesinglbase,quotedblbase,ellipsis" 	g2="yen" 	k="48" />
<hkern g1="comma,period,quotesinglbase,quotedblbase,ellipsis" 	g2="W" 	k="67" />
<hkern g1="comma,period,quotesinglbase,quotedblbase,ellipsis" 	g2="quotedbl,quotesingle,asterisk,quoteleft,quoteright,quotedblleft,quotedblright,trademark" 	k="57" />
<hkern g1="comma,period,quotesinglbase,quotedblbase,ellipsis" 	g2="t" 	k="38" />
<hkern g1="question" 	g2="hyphen,less,asciitilde,endash,emdash" 	k="30" />
<hkern g1="question" 	g2="comma,period,quotesinglbase,quotedblbase,ellipsis" 	k="57" />
<hkern g1="four" 	g2="nine" 	k="10" />
<hkern g1="four" 	g2="three" 	k="10" />
<hkern g1="four" 	g2="one" 	k="19" />
<hkern g1="four" 	g2="T" 	k="47" />
<hkern g1="four" 	g2="Y" 	k="38" />
<hkern g1="four" 	g2="V,backslash" 	k="37" />
<hkern g1="four" 	g2="question" 	k="19" />
<hkern g1="four" 	g2="seven" 	k="29" />
<hkern g1="four" 	g2="bracketright,braceright" 	k="19" />
<hkern g1="four" 	g2="yen" 	k="37" />
<hkern g1="four" 	g2="W" 	k="29" />
<hkern g1="four" 	g2="quotedbl,quotesingle,asterisk,quoteleft,quoteright,quotedblleft,quotedblright,trademark" 	k="19" />
<hkern g1="four" 	g2="X" 	k="10" />
<hkern g1="four" 	g2="parenright" 	k="10" />
<hkern g1="four" 	g2="Z,Zacute,Zdotaccent" 	k="10" />
<hkern g1="four" 	g2="cent" 	k="19" />
<hkern g1="six" 	g2="two" 	k="10" />
<hkern g1="six" 	g2="nine" 	k="20" />
<hkern g1="six" 	g2="five" 	k="10" />
<hkern g1="six" 	g2="three" 	k="10" />
<hkern g1="six" 	g2="dollar,S,Sacute" 	k="10" />
<hkern g1="six" 	g2="one" 	k="29" />
<hkern g1="six" 	g2="v,w,y" 	k="19" />
<hkern g1="six" 	g2="J" 	k="10" />
<hkern g1="six" 	g2="comma,period,quotesinglbase,quotedblbase,ellipsis" 	k="10" />
<hkern g1="six" 	g2="T" 	k="76" />
<hkern g1="six" 	g2="Y" 	k="76" />
<hkern g1="six" 	g2="slash,A,Aogonek" 	k="10" />
<hkern g1="six" 	g2="V,backslash" 	k="76" />
<hkern g1="six" 	g2="question" 	k="48" />
<hkern g1="six" 	g2="seven" 	k="48" />
<hkern g1="six" 	g2="bracketright,braceright" 	k="29" />
<hkern g1="six" 	g2="yen" 	k="57" />
<hkern g1="six" 	g2="W" 	k="57" />
<hkern g1="six" 	g2="quotedbl,quotesingle,asterisk,quoteleft,quoteright,quotedblleft,quotedblright,trademark" 	k="38" />
<hkern g1="six" 	g2="X" 	k="37" />
<hkern g1="six" 	g2="parenright" 	k="19" />
<hkern g1="six" 	g2="cent" 	k="29" />
<hkern g1="six" 	g2="x,guillemotright,guilsinglright" 	k="19" />
<hkern g1="numbersign" 	g2="ampersand" 	k="19" />
<hkern g1="ampersand" 	g2="two" 	k="10" />
<hkern g1="ampersand" 	g2="five" 	k="10" />
<hkern g1="ampersand" 	g2="three" 	k="19" />
<hkern g1="ampersand" 	g2="one" 	k="29" />
<hkern g1="ampersand" 	g2="eight" 	k="10" />
<hkern g1="ampersand" 	g2="T" 	k="67" />
<hkern g1="ampersand" 	g2="Y" 	k="67" />
<hkern g1="ampersand" 	g2="V,backslash" 	k="67" />
<hkern g1="ampersand" 	g2="seven" 	k="48" />
<hkern g1="ampersand" 	g2="yen" 	k="57" />
<hkern g1="ampersand" 	g2="W" 	k="38" />
<hkern g1="ampersand" 	g2="X" 	k="10" />
<hkern g1="sterling" 	g2="nine" 	k="19" />
<hkern g1="sterling" 	g2="zero,at,C,G,O,Q,copyright,registered,Oacute,Cacute" 	k="14" />
<hkern g1="sterling" 	g2="six" 	k="10" />
<hkern g1="sterling" 	g2="one" 	k="10" />
<hkern g1="sterling" 	g2="eight" 	k="10" />
<hkern g1="sterling" 	g2="seven" 	k="10" />
<hkern g1="hyphen,greater,asciitilde,endash,emdash" 	g2="two" 	k="10" />
<hkern g1="hyphen,greater,asciitilde,endash,emdash" 	g2="nine" 	k="10" />
<hkern g1="hyphen,greater,asciitilde,endash,emdash" 	g2="five" 	k="10" />
<hkern g1="hyphen,greater,asciitilde,endash,emdash" 	g2="three" 	k="20" />
<hkern g1="hyphen,greater,asciitilde,endash,emdash" 	g2="dollar,S,Sacute" 	k="11" />
<hkern g1="hyphen,greater,asciitilde,endash,emdash" 	g2="one" 	k="38" />
<hkern g1="hyphen,greater,asciitilde,endash,emdash" 	g2="v,w,y" 	k="10" />
<hkern g1="hyphen,greater,asciitilde,endash,emdash" 	g2="J" 	k="11" />
<hkern g1="hyphen,greater,asciitilde,endash,emdash" 	g2="comma,period,quotesinglbase,quotedblbase,ellipsis" 	k="20" />
<hkern g1="hyphen,greater,asciitilde,endash,emdash" 	g2="lslash" 	k="-9" />
<hkern g1="hyphen,greater,asciitilde,endash,emdash" 	g2="T" 	k="57" />
<hkern g1="hyphen,greater,asciitilde,endash,emdash" 	g2="Y" 	k="76" />
<hkern g1="hyphen,greater,asciitilde,endash,emdash" 	g2="slash,A,Aogonek" 	k="19" />
<hkern g1="hyphen,greater,asciitilde,endash,emdash" 	g2="V,backslash" 	k="57" />
<hkern g1="hyphen,greater,asciitilde,endash,emdash" 	g2="question" 	k="48" />
<hkern g1="hyphen,greater,asciitilde,endash,emdash" 	g2="seven" 	k="48" />
<hkern g1="hyphen,greater,asciitilde,endash,emdash" 	g2="z,zacute,zdotaccent" 	k="10" />
<hkern g1="hyphen,greater,asciitilde,endash,emdash" 	g2="bracketright,braceright" 	k="19" />
<hkern g1="hyphen,greater,asciitilde,endash,emdash" 	g2="yen" 	k="38" />
<hkern g1="hyphen,greater,asciitilde,endash,emdash" 	g2="W" 	k="38" />
<hkern g1="hyphen,greater,asciitilde,endash,emdash" 	g2="quotedbl,quotesingle,asterisk,quoteleft,quoteright,quotedblleft,quotedblright,trademark" 	k="19" />
<hkern g1="hyphen,greater,asciitilde,endash,emdash" 	g2="X" 	k="38" />
<hkern g1="hyphen,greater,asciitilde,endash,emdash" 	g2="Z,Zacute,Zdotaccent" 	k="29" />
<hkern g1="hyphen,greater,asciitilde,endash,emdash" 	g2="x,guillemotright,guilsinglright" 	k="20" />
<hkern g1="nine" 	g2="two" 	k="19" />
<hkern g1="nine" 	g2="five" 	k="10" />
<hkern g1="nine" 	g2="three" 	k="29" />
<hkern g1="nine" 	g2="dollar,S,Sacute" 	k="10" />
<hkern g1="nine" 	g2="four" 	k="10" />
<hkern g1="nine" 	g2="six" 	k="19" />
<hkern g1="nine" 	g2="ampersand" 	k="37" />
<hkern g1="nine" 	g2="hyphen,less,asciitilde,endash,emdash" 	k="10" />
<hkern g1="nine" 	g2="J" 	k="67" />
<hkern g1="nine" 	g2="eight" 	k="10" />
<hkern g1="nine" 	g2="comma,period,quotesinglbase,quotedblbase,ellipsis" 	k="57" />
<hkern g1="nine" 	g2="T" 	k="10" />
<hkern g1="nine" 	g2="Y" 	k="29" />
<hkern g1="nine" 	g2="slash,A,Aogonek" 	k="67" />
<hkern g1="nine" 	g2="V,backslash" 	k="19" />
<hkern g1="nine" 	g2="question" 	k="10" />
<hkern g1="nine" 	g2="bracketright,braceright" 	k="19" />
<hkern g1="nine" 	g2="yen" 	k="29" />
<hkern g1="nine" 	g2="W" 	k="19" />
<hkern g1="nine" 	g2="X" 	k="47" />
<hkern g1="nine" 	g2="parenright" 	k="19" />
<hkern g1="nine" 	g2="Z,Zacute,Zdotaccent" 	k="19" />
<hkern g1="nine" 	g2="a,aogonek" 	k="10" />
<hkern g1="two" 	g2="four" 	k="19" />
<hkern g1="two" 	g2="six" 	k="10" />
<hkern g1="two" 	g2="hyphen,less,asciitilde,endash,emdash" 	k="19" />
<hkern g1="two" 	g2="c,d,e,g,o,q,oacute,cacute,eogonek" 	k="5" />
<hkern g1="two" 	g2="Y" 	k="29" />
<hkern g1="two" 	g2="V,backslash" 	k="19" />
<hkern g1="two" 	g2="question" 	k="10" />
<hkern g1="two" 	g2="W" 	k="19" />
<hkern g1="two" 	g2="Lslash" 	k="19" />
<hkern g1="two" 	g2="sterling" 	k="19" />
<hkern g1="five" 	g2="two" 	k="10" />
<hkern g1="five" 	g2="nine" 	k="10" />
<hkern g1="five" 	g2="three" 	k="10" />
<hkern g1="five" 	g2="dollar,S,Sacute" 	k="10" />
<hkern g1="five" 	g2="one" 	k="10" />
<hkern g1="five" 	g2="J" 	k="10" />
<hkern g1="five" 	g2="comma,period,quotesinglbase,quotedblbase,ellipsis" 	k="10" />
<hkern g1="five" 	g2="T" 	k="30" />
<hkern g1="five" 	g2="Y" 	k="19" />
<hkern g1="five" 	g2="slash,A,Aogonek" 	k="10" />
<hkern g1="five" 	g2="V,backslash" 	k="29" />
<hkern g1="five" 	g2="question" 	k="19" />
<hkern g1="five" 	g2="seven" 	k="20" />
<hkern g1="five" 	g2="bracketright,braceright" 	k="19" />
<hkern g1="five" 	g2="yen" 	k="19" />
<hkern g1="five" 	g2="W" 	k="29" />
<hkern g1="five" 	g2="quotedbl,quotesingle,asterisk,quoteleft,quoteright,quotedblleft,quotedblright,trademark" 	k="19" />
<hkern g1="five" 	g2="X" 	k="29" />
<hkern g1="five" 	g2="parenright" 	k="10" />
<hkern g1="five" 	g2="Z,Zacute,Zdotaccent" 	k="10" />
<hkern g1="quotedbl,quotesingle,asterisk,quoteleft,quoteright,quotedblleft,quotedblright,trademark" 	g2="five" 	k="10" />
<hkern g1="quotedbl,quotesingle,asterisk,quoteleft,quoteright,quotedblleft,quotedblright,trademark" 	g2="zero,at,C,G,O,Q,copyright,registered,Oacute,Cacute" 	k="10" />
<hkern g1="quotedbl,quotesingle,asterisk,quoteleft,quoteright,quotedblleft,quotedblright,trademark" 	g2="four" 	k="30" />
<hkern g1="quotedbl,quotesingle,asterisk,quoteleft,quoteright,quotedblleft,quotedblright,trademark" 	g2="six" 	k="19" />
<hkern g1="quotedbl,quotesingle,asterisk,quoteleft,quoteright,quotedblleft,quotedblright,trademark" 	g2="v,w,y" 	k="-9" />
<hkern g1="quotedbl,quotesingle,asterisk,quoteleft,quoteright,quotedblleft,quotedblright,trademark" 	g2="hyphen,less,asciitilde,endash,emdash" 	k="19" />
<hkern g1="quotedbl,quotesingle,asterisk,quoteleft,quoteright,quotedblleft,quotedblright,trademark" 	g2="c,d,e,g,o,q,oacute,cacute,eogonek" 	k="38" />
<hkern g1="quotedbl,quotesingle,asterisk,quoteleft,quoteright,quotedblleft,quotedblright,trademark" 	g2="J" 	k="38" />
<hkern g1="quotedbl,quotesingle,asterisk,quoteleft,quoteright,quotedblleft,quotedblright,trademark" 	g2="eight" 	k="10" />
<hkern g1="quotedbl,quotesingle,asterisk,quoteleft,quoteright,quotedblleft,quotedblright,trademark" 	g2="comma,period,quotesinglbase,quotedblbase,ellipsis" 	k="57" />
<hkern g1="quotedbl,quotesingle,asterisk,quoteleft,quoteright,quotedblleft,quotedblright,trademark" 	g2="T" 	k="-9" />
<hkern g1="quotedbl,quotesingle,asterisk,quoteleft,quoteright,quotedblleft,quotedblright,trademark" 	g2="i,j" 	k="-9" />
<hkern g1="quotedbl,quotesingle,asterisk,quoteleft,quoteright,quotedblleft,quotedblright,trademark" 	g2="slash,A,Aogonek" 	k="57" />
<hkern g1="quotedbl,quotesingle,asterisk,quoteleft,quoteright,quotedblleft,quotedblright,trademark" 	g2="V,backslash" 	k="-9" />
<hkern g1="quotedbl,quotesingle,asterisk,quoteleft,quoteright,quotedblleft,quotedblright,trademark" 	g2="seven" 	k="-9" />
<hkern g1="quotedbl,quotesingle,asterisk,quoteleft,quoteright,quotedblleft,quotedblright,trademark" 	g2="a,aogonek" 	k="19" />
<hkern g1="quotedbl,quotesingle,asterisk,quoteleft,quoteright,quotedblleft,quotedblright,trademark" 	g2="s,sacute" 	k="19" />
<hkern g1="parenleft" 	g2="nine" 	k="19" />
<hkern g1="parenleft" 	g2="three" 	k="10" />
<hkern g1="parenleft" 	g2="zero,at,C,G,O,Q,copyright,registered,Oacute,Cacute" 	k="37" />
<hkern g1="parenleft" 	g2="dollar,S,Sacute" 	k="19" />
<hkern g1="parenleft" 	g2="u" 	k="10" />
<hkern g1="parenleft" 	g2="four" 	k="19" />
<hkern g1="parenleft" 	g2="six" 	k="19" />
<hkern g1="parenleft" 	g2="one" 	k="10" />
<hkern g1="parenleft" 	g2="v,w,y" 	k="19" />
<hkern g1="parenleft" 	g2="c,d,e,g,o,q,oacute,cacute,eogonek" 	k="29" />
<hkern g1="parenleft" 	g2="eight" 	k="19" />
<hkern g1="parenleft" 	g2="lslash" 	k="10" />
<hkern g1="parenleft" 	g2="t" 	k="10" />
<hkern g1="parenleft" 	g2="a,aogonek" 	k="10" />
</font>
</defs></svg> 